<svg width="79" height="66" viewBox="0 0 79 66" fill="none" xmlns="http://www.w3.org/2000/svg">
<path d="M8.31641 43.5195L8.66691 41.2292L13.6597 41.8724L13.3092 44.1627L8.31641 43.5195Z" fill="#D0021B"/>
<path opacity="0.23" d="M39.8281 53.5977L44.1527 25.3392L78.326 29.7412L74.0014 57.9996L39.8281 53.5977Z" fill="#D0021B"/>
<path d="M18.6914 58.8809L19.0419 56.5905L21.5383 56.9121L21.1878 59.2024L18.6914 58.8809Z" fill="#D0021B"/>
<path d="M75.9332 29.4734L75.7138 27.1692L50.4208 29.2004C49.5852 29.2667 48.7973 29.586 48.1811 30.1081C47.5649 30.6301 47.1553 31.3252 47.0166 32.0841L45.8693 38.4021C45.8303 38.7253 45.866 39.0523 45.974 39.3619C46.0821 39.6715 46.26 39.9568 46.4963 40.1991C46.7325 40.4414 47.0218 40.6353 47.3452 40.7681C47.6686 40.9009 48.0189 40.9698 48.3733 40.9701C48.4474 40.9704 48.5214 40.9673 48.5952 40.9608L69.6708 39.2662L71.2102 55.3991L63.5748 56.0121C63.0939 54.1153 61.8831 52.4415 60.1648 51.2981C58.4466 50.1547 56.3363 49.6186 54.2218 49.7883C52.1072 49.958 50.1304 50.822 48.6546 52.2217C47.1787 53.6213 46.303 55.4626 46.1883 57.4071L42.3214 57.7171C42.1567 57.7311 41.9906 57.7146 41.833 57.6688C41.6754 57.6229 41.5293 57.5485 41.4035 57.4499C41.2762 57.3528 41.171 57.2335 41.0942 57.0989C41.0174 56.9643 40.9704 56.817 40.956 56.6657L40.8463 55.5089L44.6135 55.2059L44.3929 52.9017L40.6256 53.2082L40.5122 52.0191L44.9527 49.5715C45.1168 49.4809 45.2563 49.3573 45.3606 49.21C45.4648 49.0626 45.5312 48.8954 45.5545 48.7211C45.5778 48.5467 45.5575 48.3697 45.4952 48.2036C45.4329 48.0375 45.3302 47.8866 45.1948 47.7624L43.5646 46.2679L45.1948 44.7722C45.3356 44.6426 45.441 44.4842 45.5021 44.3099C45.5632 44.1357 45.5784 43.9506 45.5464 43.77C45.5144 43.5893 45.4361 43.4182 45.318 43.2707C45.1999 43.1232 45.0453 43.0035 44.867 42.9215L40.521 40.9273C40.6344 40.5189 40.7454 40.1095 40.8904 39.7104L45.6335 29.1483C45.8961 28.5591 46.3309 28.0479 46.8899 27.6709C47.449 27.2939 48.1106 27.0659 48.8019 27.0119L74.7909 24.9297C75.0762 24.9083 75.3633 24.9153 75.647 24.9506L76 22.6603C75.5267 22.6 75.0476 22.5884 74.5715 22.6256L48.5813 24.7077C47.4292 24.798 46.3265 25.1783 45.3949 25.8067C44.4632 26.4351 43.7387 27.2872 43.3011 28.2692L38.534 38.9111C37.9155 40.6129 37.5553 42.3846 37.4635 44.1765C37.1897 43.6003 36.8445 43.055 36.4347 42.5513C35.7393 41.7002 34.8669 40.984 33.868 40.4442C32.869 39.9043 31.7633 39.5515 30.6148 39.4062L28.6064 39.1471L35.3176 35.043L37.108 36.6855L38.8908 35.0499L36.3692 32.7365C36.163 32.5473 35.8919 32.4296 35.6018 32.4032C35.3117 32.3768 35.0206 32.4435 34.778 32.5919L25.7254 38.128L17.3814 25.773C16.8948 25.0522 16.2412 24.4385 15.467 23.9756C14.6928 23.5126 13.817 23.2116 12.9018 23.094L0.350504 21.4746L0 23.7661L12.55 25.3855C13.0994 25.4556 13.6252 25.6359 14.0901 25.9136C14.5549 26.1913 14.9473 26.5596 15.2393 26.9922L16.0362 28.1709L0.350504 26.1489L0 28.4393L5.44793 29.1425L4.39516 36.0146L0.350504 35.4941L0 37.7844L4.04466 38.3061L1.58735 54.343L0.350504 54.1833L0 56.4737L11.3233 57.9334C11.332 60.0757 12.2656 62.1275 13.9198 63.6395C15.574 65.1515 17.8139 66.0005 20.1489 66.0004C22.0571 65.9954 23.9123 65.4241 25.4373 64.3719C26.9624 63.3197 28.0754 61.843 28.6102 60.1624L32.4544 60.6575C32.631 60.6805 32.8092 60.6921 32.9877 60.6922C33.8985 60.6906 34.778 60.3875 35.4648 59.8386C36.1515 59.2897 36.5994 58.5319 36.726 57.7044L37.8355 50.4552L38.4482 56.8669C38.5327 57.7294 38.9649 58.5319 39.6602 59.1175C40.3556 59.703 41.2641 60.0295 42.2079 60.0329C42.3189 60.0329 42.4298 60.0329 42.5408 60.0202L46.4089 59.709C46.8647 61.4828 47.9586 63.0639 49.5141 64.1972C51.0697 65.3305 52.9961 65.9499 54.9824 65.9553C55.2396 65.9553 55.4981 65.9449 55.7578 65.9241C57.8716 65.7559 59.8481 64.8933 61.3241 63.495C62.8001 62.0967 63.6763 60.2565 63.7916 58.3128L75.9307 57.3377L75.7113 55.0335L73.7192 55.1932L72.181 39.0603L75.9307 38.7596L75.7113 36.4554L71.9616 36.7654L71.3035 29.8424L75.9332 29.4734ZM35.6291 48.2193L35.4525 49.3644L30.4598 48.7201L30.8103 46.4298L35.6782 47.0567C35.7039 47.4448 35.6875 47.8342 35.6291 48.2193ZM7.94559 29.4641L17.7584 30.7296V30.7226L22.9542 38.4079L6.89155 36.3374L7.94559 29.4641ZM26.3836 58.7073C26.2101 59.8402 25.6744 60.9004 24.8441 61.7539C24.0138 62.6074 22.9263 63.2158 21.719 63.5022C20.5118 63.7886 19.2391 63.7401 18.0619 63.3629C16.8848 62.9856 15.856 62.2965 15.1057 61.3828C14.4011 60.5249 13.9708 59.5039 13.8631 58.4343C13.7554 57.3646 13.9745 56.2886 14.4958 55.3268C15.0172 54.365 15.8202 53.5554 16.8149 52.9887C17.8096 52.4221 18.9566 52.1208 20.1275 52.1186C20.4253 52.1185 20.7227 52.1375 21.0176 52.1753C22.6723 52.3906 24.1664 53.1992 25.1723 54.4237C26.1782 55.6481 26.6138 57.1886 26.3836 58.7073ZM32.8011 58.3672L28.9556 57.871C28.9503 56.3696 28.4896 54.8993 27.6251 53.6245C26.7607 52.3497 25.5266 51.3208 24.061 50.653C22.5954 49.9851 20.9561 49.7046 19.3266 49.8429C17.6972 49.9813 16.1418 50.5329 14.8346 51.4361C13.3126 52.4861 12.2058 53.9633 11.6826 55.6431L4.08374 54.6645L6.54105 38.6335L25.2652 41.0429L30.2593 41.6872C31.2314 41.7905 32.1608 42.1119 32.9654 42.6229C33.77 43.1339 34.425 43.8188 34.8726 44.6172L31.157 44.1383C30.4951 44.0529 29.8233 44.212 29.2893 44.5807C28.7552 44.9494 28.4026 45.4976 28.3088 46.1048L27.9583 48.3951C27.8648 49.0025 28.0381 49.6191 28.44 50.1094C28.8419 50.5996 29.4397 50.9233 30.1017 51.0093L35.0957 51.6524L34.7452 53.9439L30.9994 53.4615L30.6489 55.7519L34.3947 56.2354L34.2182 57.3805C34.1722 57.6835 33.9973 57.9574 33.7317 58.1423C33.4661 58.3272 33.1315 58.4081 32.8011 58.3672ZM42.1752 44.2714L40.8904 45.4501C40.654 45.667 40.5212 45.9611 40.5212 46.2679C40.5212 46.5746 40.654 46.8687 40.8904 47.0857L42.271 48.35L40.2676 49.4546L40.004 46.6924C39.8988 45.5609 39.9136 44.4228 40.0482 43.2939L42.1752 44.2714ZM61.2713 57.3574C61.38 58.497 61.118 59.6405 60.5183 60.6435C59.9186 61.6464 59.0082 62.4637 57.9022 62.9919C56.7962 63.5201 55.5443 63.7356 54.3048 63.611C53.0654 63.4864 51.894 63.0275 50.9389 62.2921C49.9838 61.5568 49.2878 60.5781 48.939 59.4798C48.5902 58.3815 48.6042 57.213 48.9792 56.1221C49.3543 55.0311 50.0735 54.0667 51.0461 53.3508C52.0186 52.6348 53.2006 52.1996 54.4428 52.1001C54.6294 52.085 54.821 52.0769 55.0026 52.0769C56.5776 52.0795 58.0945 52.623 59.2547 53.6003C60.4149 54.5775 61.1343 55.9179 61.2713 57.3574ZM69.4526 36.9759L48.3657 38.7168L49.5067 32.4704C49.5529 32.2175 49.6895 31.9858 49.8949 31.8118C50.1003 31.6378 50.3629 31.5313 50.6415 31.5092L68.797 30.0517L69.4526 36.9759Z" fill="#D0021B"/>
<path d="M49.7773 43.1836L54.8004 42.7811L55.0198 45.0853L49.9967 45.4878L49.7773 43.1836Z" fill="#D0021B"/>
<path d="M53.582 56.8203L56.0936 56.619L56.3129 58.9232L53.8014 59.1245L53.582 56.8203Z" fill="#D0021B"/>
<path d="M20.7219 26.2671L22.5046 24.6315L20.8744 23.1359H24.1349C24.4693 23.1359 24.7899 23.014 25.0264 22.7971C25.2628 22.5802 25.3957 22.286 25.3957 21.9792V18.9879L29.5475 22.797C29.7839 23.0138 30.1046 23.1356 30.4389 23.1356C30.7732 23.1356 31.0938 23.0138 31.3303 22.797L35.4821 18.9879V21.9792C35.4821 22.286 35.6149 22.5802 35.8514 22.7971C36.0878 23.014 36.4085 23.1359 36.7429 23.1359H41.2641L38.3731 25.7883L40.1559 27.4239L45.1991 22.797C45.3754 22.6352 45.4954 22.4291 45.5441 22.2048C45.5927 21.9804 45.5677 21.7479 45.4723 21.5365C45.3769 21.3252 45.2153 21.1446 45.0081 21.0175C44.8008 20.8904 44.5571 20.8225 44.3077 20.8224H38.0037V16.1955C38.0037 15.9668 37.9297 15.7432 37.7911 15.553C37.6526 15.3629 37.4557 15.2146 37.2254 15.1271C36.995 15.0396 36.7415 15.0167 36.497 15.0613C36.2525 15.1059 36.0278 15.216 35.8515 15.3777L30.4389 20.3436L25.0263 15.3777C24.8499 15.216 24.6253 15.1059 24.3808 15.0613C24.1362 15.0167 23.8828 15.0396 23.6524 15.1271C23.4221 15.2146 23.2252 15.3629 23.0866 15.553C22.9481 15.7432 22.8741 15.9668 22.8741 16.1955V20.8224H17.8308C17.5815 20.8225 17.3378 20.8904 17.1305 21.0175C16.9232 21.1446 16.7617 21.3252 16.6663 21.5365C16.5709 21.7479 16.5459 21.9804 16.5945 22.2048C16.6432 22.4291 16.7632 22.6352 16.9395 22.797L20.7219 26.2671Z" fill="#D0021B"/>
<path d="M28.2969 13.8798H30.8185C30.8191 13.656 30.8717 13.4349 30.9728 13.2312C31.0739 13.0275 31.2211 12.846 31.4048 12.6987C32.1606 11.9821 32.5832 11.0239 32.5832 10.0267C32.5832 9.02949 32.1606 8.07132 31.4048 7.35467C31.2203 7.20722 31.0724 7.0252 30.971 6.82088C30.8697 6.61655 30.8172 6.39467 30.8172 6.17018C30.8172 5.94569 30.8697 5.72381 30.971 5.51948C31.0724 5.31516 31.2203 5.13314 31.4048 4.98569C32.1648 4.27101 32.5882 3.31094 32.5837 2.3125H30.0621C30.0617 2.53694 30.0091 2.75872 29.9078 2.963C29.8065 3.16728 29.6588 3.34934 29.4745 3.49699C28.7191 4.21431 28.2969 5.17275 28.2969 6.17018C28.2969 7.16761 28.7191 8.12605 29.4745 8.84337C29.6588 8.9906 29.8065 9.17236 29.9077 9.37638C30.0089 9.58041 30.0613 9.80196 30.0613 10.0261C30.0613 10.2503 30.0089 10.4718 29.9077 10.6759C29.8065 10.8799 29.6588 11.0616 29.4745 11.2089C28.7145 11.9225 28.2914 12.882 28.2969 13.8798Z" fill="#D0021B"/>
<path d="M35.8516 11.5673H38.3732C38.3738 11.3435 38.4263 11.1224 38.5274 10.9187C38.6285 10.715 38.7758 10.5335 38.9595 10.3862C39.7153 9.66958 40.1379 8.71142 40.1379 7.7142C40.1379 6.71699 39.7153 5.75882 38.9595 5.04217C38.775 4.89472 38.6271 4.7127 38.5257 4.50838C38.4244 4.30405 38.3719 4.08217 38.3719 3.85768C38.3719 3.63319 38.4244 3.41131 38.5257 3.20698C38.6271 3.00266 38.775 2.82064 38.9595 2.67319C39.7195 1.95851 40.1428 0.99844 40.1384 0H37.6167C37.6164 0.224437 37.5638 0.446222 37.4625 0.650501C37.3612 0.85478 37.2134 1.03684 37.0292 1.18449C36.2738 1.90181 35.8516 2.86025 35.8516 3.85768C35.8516 4.85511 36.2738 5.81355 37.0292 6.53087C37.2134 6.6781 37.3611 6.85986 37.4624 7.06388C37.5636 7.26791 37.6159 7.48946 37.6159 7.71362C37.6159 7.93779 37.5636 8.15934 37.4624 8.36337C37.3611 8.56739 37.2134 8.74915 37.0292 8.89638C36.2692 9.60998 35.8461 10.5695 35.8516 11.5673Z" fill="#D0021B"/>
</svg>
