<?xml version="1.0" encoding="utf-8"?>
<!-- Generator: Adobe Illustrator 23.0.2, SVG Export Plug-In . SVG Version: 6.00 Build 0)  -->
<svg version="1.1" id="Layer_1" xmlns="http://www.w3.org/2000/svg" xmlns:xlink="http://www.w3.org/1999/xlink" x="0px" y="0px"
	 viewBox="0 0 1176 210.7" style="enable-background:new 0 0 1176 210.7;" xml:space="preserve">
<style type="text/css">
	.st0{opacity:0.23;fill:#2F3788;enable-background:new    ;}
	.st1{fill:#05529C;}
	.st2{fill:#4777B6;}
	.st3{opacity:6.000000e-02;}
	.st4{fill:#010001;}
	.st5{fill:#D0E8F4;}
	.st6{fill:#F5C5B0;}
	.st7{fill:#34445A;}
	.st8{fill:#BCBEC0;}
	.st9{fill:#F8F8F7;}
	.st10{fill:#EBAE95;}
	.st11{opacity:3.000000e-02;fill:#010001;enable-background:new    ;}
	.st12{opacity:0.1;fill:#1F1B1B;enable-background:new    ;}
	.st13{fill:#F6CFB1;}
	.st14{fill:#5DB6DD;}
	.st15{fill:#4E4D4D;}
	.st16{opacity:0.2;}
	.st17{fill:#FFFDF1;}
	.st18{opacity:0.1;fill:#010001;enable-background:new    ;}
	.st19{fill:#32363E;}
	.st20{fill:#FFFFFF;}
	.st21{opacity:0.12;}
	.st22{opacity:0.26;fill:#010001;enable-background:new    ;}
	.st23{opacity:0.23;}
	.st24{fill:#2F3788;}
	.st25{fill:#D98270;}
	.st26{fill:#454E99;}
	.st27{fill:#303030;}
	.st28{fill:#F7D1B9;}
	.st29{fill:#202B38;}
	.st30{fill:#CAD2D9;}
	.st31{fill:#F4AE3C;}
	.st32{fill:#F5B45B;}
	.st33{opacity:2.000000e-02;}
	.st34{opacity:0.34;fill:#FFFFFF;enable-background:new    ;}
	.st35{fill:#8F9598;}
	.st36{fill:#3D3B39;}
	.st37{fill:#D1D0D1;}
	.st38{fill:#E9D0B4;}
	.st39{fill:#F3B6A8;}
	.st40{fill:#E34E50;}
	.st41{fill:#FFFCED;}
	.st42{fill:#D8E0E5;}
	.st43{fill:#363940;}
	.st44{fill:#83A3D2;}
	.st45{fill:#A2C0E2;}
	.st46{fill:#1D1816;}
	.st47{fill:#D2B6A1;}
	.st48{fill:#4A5AA0;}
	.st49{fill:#5663A6;}
	.st50{opacity:0.34;}
	.st51{fill:#E67087;}
	.st52{fill:#F8D3BA;}
	.st53{fill:#252448;}
	.st54{fill:#252829;}
	.st55{fill:#EAC5A9;}
	.st56{fill:#F9F9F9;}
</style>
<path class="st0" d="M1148.8,200.4H822c-11.1,0-20.2,1.2-20.2,2.6l0,0c0,1,4.4,1.9,10.7,2.3h-22.2c-11.1,0-20.2,1.2-20.2,2.6l0,0
	c0,1.4,9.1,2.6,20.2,2.6h2c-3,0.5-4.9,1.1-4.9,1.7v1.1c0,1.4,9.1,2.6,20.2,2.6h321.7c11.1,0,20.2-1.2,20.2-2.6v-1.1
	c0-1.4-9.1-2.6-20.2-2.6h0.8c1.8,0,4.7-0.2,6.7-0.6c3.4-0.7,3.6-1.6,1.9-2.4c-1.1-0.5-2.8-1-7.1-1.1h17.2c11.1,0,20.2-1.2,20.2-2.6
	l0,0C1169,201.5,1159.9,200.4,1148.8,200.4z"/>
<path class="st0" d="M324.2,199.5H50.8c-8.6,0-15.8,1.2-15.8,2.6l0,0c0,1,3.4,1.9,8.4,2.3h-24c-8.6,0-15.8,1.2-15.8,2.6l0,0
	c0,1.4,7,2.6,15.8,2.6h8.4c-2.4,0.5-3.8,1.1-3.8,1.7v1.1c0,1.4,7,2.6,15.8,2.6H309c8.6,0,15.8-1.2,15.8-2.6v-1.1
	c0-1.4-7-2.6-15.8-2.6h-18.3c1.4,0,3.7-0.2,5.2-0.6c2.6-0.7,2.8-1.6,1.5-2.5c-0.9-0.5-2.2-1-5.5-1.1h32.4c8.6,0,15.8-1.2,15.8-2.6
	l0,0C339.8,200.6,332.8,199.5,324.2,199.5z"/>
<g>
	<g>
		<g>
			<g>
				<path class="st1" d="M929.2,55.8c-15.3,3.8-23.3-3.2-24.3-4.2c0,0,0-0.1-0.1-0.1s-0.1,0.1-0.1,0.1c-1,1.1-8.6,8.5-24.1,5.5
					c0,0-1.6,27.7,7.6,38.7c9.9,11.8,18.1,15.2,18.1,15.1c0,0,8.1-3.8,17.2-16.1C932.3,83.3,929.2,55.8,929.2,55.8z"/>
				<path class="st2" d="M927.1,58.6c-13.9,3.3-21.1-2.8-22.1-3.8c0,0,0-0.1-0.1-0.1l-0.1,0.1c-0.9,1-7.9,7.5-21.8,4.9
					c0,0-1.5,24.7,6.9,34.5c9,10.5,16.4,14.2,16.4,14.1c0,0,7.4-4,15.6-15.1C929.8,83.2,927.1,58.6,927.1,58.6z"/>
				<g class="st3">
					<path class="st4" d="M905,57.4C905,57.4,905,57.3,905,57.4C905,57.3,905,57.4,905,57.4c1.1,0.9,8.5,7.2,22.4,4.1
						c-0.2-2.5-0.3-4.1-0.3-4.1c-13.9,3.3-21.1-2.8-22.1-3.8c0,0,0-0.1-0.1-0.1l-0.1,0.1c-0.9,1-7.9,7.5-21.8,4.9
						c0,0-0.1,1.6-0.1,4.1C897,65,904,58.4,905,57.4z"/>
				</g>
			</g>
			<path class="st5" d="M923.1,65.6c-10.5,2.6-17.2-2.4-18-3.1c0,0,0-0.1-0.1-0.1v0.1c-0.7,0.8-7.1,6-17.7,4.1
				c0,0,0.1,18.7,6.4,26.3c6.8,8.1,12.4,10.5,12.4,10.4c0,0,5.5-2.6,11.8-11C924,84.2,923.1,65.6,923.1,65.6z"/>
		</g>
		<g>
			<g>
				<g>
					<polygon class="st6" points="907.4,111.9 905.7,110.4 905.7,108.3 905.3,108.1 905,108.6 904.5,106.9 903.3,106.2 901.5,106.8 
						900.5,108.5 901.4,110.2 903.3,111.4 905.5,113.7 					"/>
				</g>
				<polygon class="st1" points="907.2,110 904.2,113.6 912.3,125.8 915.3,126.8 928.1,116.6 924.6,109.6 915.2,117.7 				"/>
			</g>
			<g>
				<g>
					<polygon class="st7" points="947.8,206.2 948.2,208.3 944.7,211.2 942.3,209.5 943.8,207.1 947.4,204.2 					"/>
					<polygon class="st8" points="935.4,143.2 939.4,152.4 939.8,178 947.9,205.5 944.1,207.2 927.6,175.2 925.6,165.1 924.9,143.7 
											"/>
				</g>
				<g>
					<polygon class="st8" points="916.3,145.2 916,172.1 921.1,206.7 925,206.7 927.4,174.8 932.7,142.8 					"/>
					<polygon class="st7" points="925,206.2 925,208.3 920.7,210.4 918.6,208.3 920.7,206.2 					"/>
				</g>
			</g>
			<path class="st1" d="M924,108.9l10.3-0.4c0,0,6.2,5.4,9.4,19.5c3.3,14.3-0.6,35-0.6,35s-27.7-3.7-32.3-4.3l6.9-28.4L924,108.9z"
				/>
			<g>
				<path class="st6" d="M927.7,110c1.2-0.1,2.4-0.3,3.6-0.3c0-1-0.1-1.9-0.2-2.9c1-0.3,2.2-0.9,2.3-1.9c0.1-0.3,0-0.7-0.1-1
					c-0.3-1.3-0.5-2.8-0.7-4.1c-0.1-0.5-0.2-0.9-0.4-1.3c-0.4-0.8-1.3-1-2.2-1.2c-2.1-0.3-4.4,0.1-6.1,1.5c-0.4,0.3-0.8,0.8-1,1.3
					c-0.3,0.8-0.1,1.8,0.2,2.6c0.2,0.8,0.4,1.6,0.6,2.3c0.3,0.9,0.6,1.9,1.4,2.3c0.5,0.2,1,0.2,1.4,0.4
					C927.4,108.1,927.3,109.2,927.7,110z"/>
				<path class="st7" d="M915.9,96.3c0-0.9,0.1-1.9,0.3-2.8c0.3-1.5,2.1-2.1,3.5-2.3c3.3-0.3,6.4-1.7,9.5-0.6
					c1.8,0.7,4.3,0.8,5.9,1.8c0.7,0.4,1.3,1,1.7,1.7c1.5,2.3,1.5,5.4,0,7.7c-0.3,0.5-0.8,1-1.2,1.4c-0.8,0.9-1.8,2.1-3,2.4
					c0-1.1,0.9-4.4,0.2-5.2c-1.3-1.3-4.2-0.9-5.8-0.6c-1.8,0.3-3.3,1.6-5,1.8c-1.3,0.2-2.8-0.4-3.8-1.1
					C916.5,99.6,915.9,98,915.9,96.3z"/>
			</g>
			<path class="st9" d="M926.8,110.2l-10.9,43.4l-0.9,5.7l13.6,1.8c0,0-0.5-20.8-0.3-23.6c0.2-2.8,2.2-8.8,2.5-15.2
				c0.2-3.8,1.3-10.5,0.5-12.6L926.8,110.2z"/>
			<g>
				<polygon class="st6" points="917.1,133.4 914.7,134.1 912.7,133.1 912.2,133.4 912.7,133.9 910.7,133.5 909.3,134.3 
					909.1,136.3 910.2,138.2 912.2,138.3 914.4,137.1 917.8,136.2 				"/>
				<path class="st1" d="M915.1,133.5c3.8-0.9,7.5-1.8,11.3-2.7c1-0.3,2.1-0.3,3.1-0.5c1.5-0.3,1.9-0.5,2.1-1.9
					c0.6-4.1-0.2-8.4,0.4-12.4c1.5-0.2,2.9-0.5,4.4-0.5c2.5,0,2.3,1.8,2.4,3.6c0.2,2.3,0.3,4.5,0.3,6.8c0,1.8,0.7,10-2.1,10.5
					c-2,0.4-21.8,1.5-21.8,1.9L915.1,133.5z"/>
			</g>
		</g>
	</g>
	<g>
		<g>
			<polygon class="st6" points="886.6,114.3 887.9,112.9 888,111.3 888.3,111.1 888.6,111.5 889,110.1 890,109.5 891.4,110 
				892.2,111.4 891.6,112.9 890,113.9 888.1,115.7 			"/>
			<polygon class="st2" points="887,112.2 879.2,121.5 869,111.6 867.4,123.4 879.8,129.5 889.6,114.9 			"/>
		</g>
		<g>
			<polygon class="st7" points="853,204.7 852.8,206.3 855.8,208.4 857.6,206.9 856.2,205.1 853.2,203 			"/>
			<polygon class="st6" points="853.1,153.7 852.6,158.8 857.1,176.2 852.9,204.1 856,205.2 864.1,177.9 865.5,169.9 865.4,153.2 
							"/>
		</g>
		<g>
			<polygon class="st6" points="876.9,159.4 870.4,206.2 867.4,206.2 866.9,176.2 861.5,155.1 			"/>
			<polygon class="st7" points="867.5,205.7 867.5,207.5 870.7,209.2 872.2,207.5 870.7,205.7 			"/>
		</g>
		<path class="st2" d="M869.7,111.4c-0.3-0.4-0.6-0.7-1-0.9c-2.9-1.7-7.9-0.2-11-0.2c-0.9,10-3.5,19.4-5.3,29.2
			c-1.8,10.4-3.8,20.7-6,31c-0.2,0.6,8.9,0.3,9.7,0.3c8.7,0.2,20,0.1,28.4-2.5c-5.4-14.3-7.3-29.8-11.5-44.5
			c-0.8-2.6-1.6-5.1-2.3-7.7C870.3,114.4,870.4,112.6,869.7,111.4z"/>
		<path class="st7" d="M865.7,96.6c2.2,0.6,3.9,2.6,4.2,4.9c1.2-1.1,1.8-2.8,1.6-4.4c-0.3-1.6-1.3-3.1-2.8-3.8
			c-1.3,0.8-2.4,2-2.8,3.5L865.7,96.6z"/>
		<path class="st6" d="M870.2,99.6c-1.2-6-8.6-4.9-10.8-0.1c-1.3,2.8,0.1,6.7,2.5,8.6c0.1,0.5,0.1,2,0.5,2.3c0.4,0.4,1.8,0,2.3-0.1
			c0.2,0,0.3-0.1,0.4-0.2c0.2-0.2,0.2-0.5,0.2-0.9c0.4,0,0.8-0.1,1.3-0.3c1.8-0.6,3-2.2,3.5-3.9C870.7,103.3,870.5,101.4,870.2,99.6
			z"/>
		<g>
			<g>
				<path class="st6" d="M859.2,129.5c-0.3-0.4-0.4-0.8-0.5-1.3c-0.2-0.8,0-1.6,0.3-2.3c0.2-0.3,0.5-0.5,0.8-0.3
					c0.3,0.1,0.5,0.5,0.3,0.8c-0.3,0.7-0.3,1.5-0.1,2.2c0.2-0.1,0.3-0.2,0.5-0.3c0.6-0.2,1.5-0.4,1.9,0.2c0.5,0.7,0.1,1.4-0.6,1.8
					c-0.5,0.3-1.2,0.3-1.7,0.2c0,0.8,0.3,1.2,0.9,1.3c0.4,0.2,1.5,0.3,1.8-0.2c0.3-0.3,0.2-1.1,0.3-1.4c0.3-1,0.6-1.9,1-2.8
					c0.8-1.8,2.2-3.5,3.7-4.9c3.4-3.2,7.9-5,12.5-5.9c0.3-0.1,0.5-0.1,0.8-0.2c3.1-0.5,6.2-0.4,9,0.3c0.7-1,1.4-1.9,2.4-2.6
					c2.2-1.5,5.2-1.8,7.5-0.5c-1.8,2.1-3.3,5.2-3.6,5.7c2.8,1.7,5,4,6.7,7c0,0.1,0.1,0.1,0.1,0.2l3.4,0.5c0,0,1.3,6.7,0.5,8.7
					c0,0-2.7,1.1-4.3,1.5c-1.2,2.8-3.3,5.2-5.9,7.2c-0.2,0.2-0.3,0.3-0.5,0.4l0.8,5.4c0,0-4.1,2.1-6.3,1.7l-1.8-3.5
					c-1,0.3-2.1,0.5-3.3,0.7c-1.3,0.2-2.6,0.3-3.8,0.3l-0.7,4c-2,1-6.4,0.3-6.4,0.3l-0.8-5.4c-5.9-1.8-10.2-6-11.1-12.4
					c-0.1-0.5-0.2-1.1-0.2-1.6c-0.9,0-1.9-0.3-2.7-0.8c-0.6-0.5-1-1.1-1.2-1.8C859,130.9,858.9,130.1,859.2,129.5z"/>
				<path class="st10" d="M888.7,117.4l-0.4,2c0,0-6.3-0.8-12.4,1.9l-1.6-1.2C874.4,120.1,879.8,115,888.7,117.4z"/>
				<path class="st11" d="M864.7,136c2.8,4.1,7.4,6.6,12.2,7.9c3.5,0.9,7.4,1.3,11,1c5.4-0.5,10.1-2.9,14.6-5.8
					c0.2-0.2,0.4-0.3,0.6-0.4c-1.2,1.9-2.8,3.6-4.8,5c-3,2.3-6.8,3.9-11,4.5c-11.3,1.8-21.4-2.9-23-13
					C864.5,135.6,864.6,135.9,864.7,136z"/>
				<path class="st11" d="M904.5,126.2c0,0,2.7,6.5-0.4,10.6l1.6-0.5C905.8,136.3,907.4,130.1,904.5,126.2z"/>
			</g>
			<g>
				<g>
					<g>
						<path class="st2" d="M885.5,98c-3.4,0.6-5.8,3.8-5.3,7.3c0.6,3.4,3.8,5.8,7.3,5.3s5.8-3.8,5.3-7.3
							C892.2,99.8,889,97.5,885.5,98z"/>
						<path class="st12" d="M885.4,97.5c-3.8,0.6-6.3,4.2-5.7,7.9c0.6,3.8,4.2,6.3,7.9,5.7c3.7-0.6,6.3-4.2,5.7-7.9
							C892.7,99.4,889.2,96.8,885.4,97.5z M887.4,109.9c-3.1,0.5-6.1-1.6-6.6-4.8c-0.5-3.2,1.6-6.1,4.8-6.6s6.1,1.6,6.6,4.8
							C892.7,106.5,890.6,109.4,887.4,109.9z"/>
						<path class="st1" d="M885.3,96.7c-4.1,0.7-6.9,4.6-6.3,8.7c0.7,4.1,4.6,6.9,8.7,6.3c4.1-0.7,6.9-4.6,6.3-8.7
							S889.5,96,885.3,96.7z M887.6,110.5c-3.4,0.6-6.7-1.8-7.3-5.3c-0.6-3.4,1.8-6.7,5.3-7.3c3.4-0.6,6.7,1.8,7.3,5.3
							C893.3,106.7,891,109.9,887.6,110.5z"/>
					</g>
				</g>
				<g>
					<g>
						<path class="st5" d="M884.8,106.4c-0.1,0-0.1-0.2-0.2-0.3c-0.1-0.3,0.1-0.5,0.3-0.5c0.3-0.1,0.8,0.1,1.2,0.3
							c0.3,0.1,0.7,0.1,1,0.1c0.3-0.1,0.7-0.2,0.8-0.4c0.2-0.3,0.3-0.5,0.3-0.8c-0.1-0.3-0.2-0.5-0.3-0.6c-0.2-0.1-0.5-0.1-0.9-0.1
							l-0.3,0.1c-0.7,0.1-1.3,0.1-1.7-0.2c-0.4-0.3-0.7-0.7-0.8-1.2c-0.1-0.6,0-1,0.3-1.3s0.8-0.6,1.4-0.7c0.3,0,0.6,0,0.8,0
							c0.6,0.1,1.7,0.4,1.5,1c-0.2,0.7-1.3-0.1-1.7-0.2c-0.3-0.1-0.5-0.1-0.8,0s-0.6,0.2-0.8,0.4c-0.2,0.2-0.3,0.4-0.2,0.7
							c0,0.3,0.2,0.4,0.4,0.5s0.7,0.1,1.3,0c0.8-0.1,1.3,0,1.7,0.2s0.6,0.7,0.7,1.3c0.1,0.6,0,1-0.3,1.4s-0.8,0.7-1.4,0.8
							c-0.2,0-0.4,0.1-0.7,0C886.1,106.8,885.4,106.8,884.8,106.4z"/>
					</g>
					<path class="st5" d="M887.3,108.3L887.3,108.3c-0.3,0-0.4-0.2-0.5-0.4l-1.2-7.7c0-0.3,0.1-0.5,0.3-0.5l0,0
						c0.3,0,0.4,0.2,0.5,0.4l1.2,7.7C887.6,108,887.5,108.3,887.3,108.3z"/>
				</g>
			</g>
		</g>
		<g>
			<polygon class="st6" points="862.4,132.7 864.4,133.3 866.1,132.4 866.4,132.7 866.1,133.2 867.6,132.9 868.8,133.4 869,135.1 
				868.1,136.7 866.4,136.7 864.6,135.8 861.9,135 			"/>
			<path class="st2" d="M857.1,130.5c-0.8-0.6-1.4-1.3-1.5-2.6c-0.1-1.1,0.2-2.2,0.4-3.3c0.6-3.4,0.5-6.9-0.3-10.4
				c-0.8-3.3-4.7,0.8-5.2,2.4c-0.6,1.7-0.4,3.5-0.5,5.3c-0.2,2.3-0.3,4.7-0.3,7c0,1.5-0.3,5,1.2,5.9c0.4,0.3,0.9,0.3,1.4,0.4
				c0.8,0.1,9.7,1.3,9.8,0.8l1.3-3.9C861.6,131.9,858.9,131.7,857.1,130.5z"/>
		</g>
		<path class="st7" d="M859.1,123.4c0.1,0,0.2,0,0.2,0c1.3-0.3,3.4-0.7,4-2c0.7-1.4-0.5-4-0.7-5.5c-0.3-2.3-0.3-4.5-0.5-6.8
			c-0.1-2,0.7-4,1.7-5.8c1.1-1.8,2.4-3.3,3.8-4.8c0.6-0.7,1.2-1.3,1.3-2.2c0.2-0.9-0.2-1.9-0.8-2.6c-0.9-1.1-2-1.7-3.4-1.7
			c-4.9-0.1-8.7,2.8-10,7.6c-2,6.9,0.5,13.6,0.2,20.4c-0.1,1.2-0.4,2.3-1.1,3.3C853.9,123.2,858,123.5,859.1,123.4z"/>
	</g>
	<g>
		<g>
			<polygon class="st13" points="1065.8,90.1 1065.2,86.1 1067,85.8 1067.9,88.5 1068.6,87.9 1068.7,91.4 1067,92 			"/>
			<polygon class="st14" points="1091.2,111.3 1075.9,107.1 1069.1,90.3 1065.7,91.5 1069.4,113.2 1087,122.6 			"/>
		</g>
		<g>
			<g>
				<polygon class="st1" points="1088.3,152.1 1088.3,157.5 1081.1,180.8 1082.9,205.1 1078.4,206 1071.2,176.4 1071.6,167.7 
					1074.8,149.8 				"/>
				<polygon class="st1" points="1082.6,158.5 1089.8,207.8 1093.1,207.8 1095.2,181 1099.7,154 				"/>
				<polygon class="st7" points="1079.2,206.6 1075.7,210.2 1076.8,212 1083.8,208.7 1082.5,206 				"/>
				<polygon class="st7" points="1089.9,209 1085.7,211.7 1086.2,213.7 1093.8,212.2 1093.2,209.3 				"/>
			</g>
			<g>
				<path class="st6" d="M1078.4,98.2c2.9,0.3,5.6-2.2,8.5-1.6c1.8,0.4,3.3,2,3.9,3.9c0.3,0.8,0.3,1.8,0.1,2.7
					c-0.2,0.6-0.5,1.1-0.8,1.5c-0.5,0.6-1.1,1.1-1.8,1.5c0.3,0.6,0.8,1.2,1.3,1.7c-1.3,0.5-2.7,1-4,1.5c-0.3-0.8-0.6-1.5-0.9-2.3
					c-0.4,0-0.8-0.1-1.2-0.2c-2.3-0.6-4.4-2.7-4.9-5.2C1078.3,100.6,1078.3,99.4,1078.4,98.2z"/>
				<polygon class="st15" points="1079.2,99.1 1088.1,98 1089.9,104.8 1092.4,102.8 1091.1,91.6 1078.4,91.4 1072.9,94.5 
					1073.2,97.8 1078.1,101.1 				"/>
			</g>
			<path class="st14" d="M1082.6,110.4l10.7-4.3c0,0,5,10.5,9.3,25.6s-1.4,36.1-1.4,36.1s-29.8-6.1-34.6-7l9.6-30.2L1082.6,110.4z"
				/>
		</g>
		<g>
			<g>
				<path class="st7" d="M1084.1,78.2l-3.3-4h-0.1c-0.2-0.5-0.3-0.9-0.5-1.4c-0.8-2.4-1.7-4.9-2.5-7.3c-0.8-2.2-1.2-5.7-3.9-6
					l-25.9-3.3c-2.8-0.3-5.7,1.1-7.3,3.6l-5.5,9l-0.4-0.1l-9,1.7c-3.3,1.1-5.5,3.9-5.9,7.4l-0.7,5.1l65.8,8.2l0.9-7.3
					C1086,81.8,1085.5,79.8,1084.1,78.2z"/>
				<path class="st5" d="M1059.3,70.8l17.3,2.2l-2.7-10.1c-0.2-0.5-0.6-0.8-1-0.9l-12.2-1.5L1059.3,70.8z"/>
				<path class="st5" d="M1057.8,59.9l-9.9-1.3c-2.1-0.3-4.2,0.8-5.4,2.7l-4.2,6.8l18.1,2.3L1057.8,59.9z"/>
				<g class="st16">
					<path class="st17" d="M1074.2,65.2c0.3,0.2,0.4,0.3,0.7,0.4l-0.8-2.8c-0.2-0.5-0.6-0.8-1-0.9l-4.3-0.5
						C1070.6,62.7,1072.3,63.9,1074.2,65.2z"/>
					<path class="st17" d="M1074.2,67.5c-2.9-2.1-6-4.5-9-6.6l-4-0.4c2.4,2.7,5.6,5.2,8.5,7.4c1.7,1.3,3.4,2.7,5.2,3.8
						c0.6,0.4,1.2,0.8,1.8,1.2l-1.2-4.4C1075.1,68.2,1074.7,67.8,1074.2,67.5z"/>
					<path class="st17" d="M1053.8,65.8c-1.3-1-2.5-2-3.8-2.9s-2.7-1.9-4-2.8c-0.5-0.3-0.9-0.5-1.4-0.8c-0.8,0.5-1.6,1.2-2.1,2v0.1
						c1.3,1.3,2.8,2.4,4.1,3.7c2,1.8,4.3,3.3,6.5,4.9l3.3,0.4l0.3-1.9C1055.8,67.6,1054.8,66.7,1053.8,65.8z"/>
				</g>
				<g>
					<path class="st18" d="M1044,86c0.1-0.3,0.2-0.6,0.2-0.9c0.4-3-2.3-5.9-5.8-6.4c-1.4-0.2-2.8,0-3.8,0.6c2.2,0.8,3.9,2.1,5.4,3.8
						c0.8,0.8,1.3,1.7,1.7,2.6L1044,86z"/>
				</g>
				<g>
					<path class="st18" d="M1078.1,90.3c0.1-0.3,0.2-0.6,0.2-0.9c0.4-3-2.2-5.9-5.7-6.3c-1.3-0.2-2.7,0.1-3.8,0.6
						c2.1,0.8,3.8,2.1,5.3,3.8c0.7,0.8,1.3,1.7,1.6,2.6L1078.1,90.3z"/>
				</g>
				<g>
					<ellipse class="st19" cx="1036.3" cy="84.4" rx="5.9" ry="5.9"/>
					<g>
						<g>
							<path class="st9" d="M1034.7,87.3c-1.6-0.8-2.2-2.8-1.3-4.5c0.8-1.6,2.8-2.2,4.5-1.3c1.6,0.8,2.2,2.8,1.3,4.5
								C1038.3,87.6,1036.3,88.2,1034.7,87.3z"/>
						</g>
						<path class="st18" d="M1036.6,86.8c0.7,0,1.3-0.1,1.8-0.5c-0.3,0.6-0.8,0.9-1.4,1c-0.2,0-0.4,0-0.6,0c-0.3,0-0.4,0-0.7-0.1
							c-0.6-0.2-1.1-0.6-1.3-1.2c0.1,0.2,0.7,0.3,0.8,0.4C1035.8,86.7,1036.2,86.8,1036.6,86.8z"/>
					</g>
				</g>
				<g>
					<ellipse class="st19" cx="1070.5" cy="88.7" rx="5.9" ry="5.9"/>
					<g>
						<g>
							<path class="st9" d="M1069,91.6c-1.6-0.8-2.2-2.8-1.3-4.5c0.8-1.6,2.8-2.2,4.5-1.3c1.6,0.8,2.2,2.8,1.3,4.5
								C1072.6,91.9,1070.6,92.4,1069,91.6z"/>
						</g>
						<path class="st18" d="M1070.8,91c0.7,0,1.3-0.1,1.8-0.5c-0.3,0.6-0.8,0.9-1.4,1c-0.2,0-0.4,0-0.6,0c-0.3,0-0.4,0-0.7-0.1
							c-0.6-0.2-1.1-0.6-1.3-1.2c0.1,0.2,0.7,0.3,0.8,0.4C1069.9,90.9,1070.3,91,1070.8,91z"/>
					</g>
				</g>
			</g>
			<path class="st18" d="M1053.7,74.5l-1.8-0.3c-0.3-0.1-0.6-0.3-0.6-0.8v-0.1c0.1-0.3,0.3-0.6,0.8-0.6l1.8,0.3
				c0.3,0.1,0.6,0.3,0.6,0.8v0.1C1054.4,74.2,1054.1,74.5,1053.7,74.5z"/>
		</g>
		<g>
			<polygon class="st13" points="1062.6,92.2 1062.4,88.2 1064,87.9 1064.9,90.7 1065.6,90.2 1065.5,93.7 1063.7,94.1 			"/>
			<polygon class="st14" points="1086.6,115 1071.6,109.8 1065.9,92.5 1062.4,93.6 1064.7,115.5 1081.6,125.9 			"/>
		</g>
	</g>
	<g>
		<path class="st2" d="M1049.5,133.4c0.7-0.1,1.3,0.4,1.6,0.9c0.3,0.6,0.4,1.3,0.5,1.9c0.1,0.8,0.1,1.6,0,2.4
			c-0.1,0.4-0.1,0.9-0.3,1.3c-0.3,0.4-0.7,0.8-1.1,0.8c-0.3,0-0.6-0.2-0.9-0.3c-0.2-0.1-0.4-0.2-0.5-0.4s-0.1-0.3-0.1-0.5
			C1048.5,138.2,1047.4,133.5,1049.5,133.4z"/>
		<g>
			<path class="st6" d="M1050.8,134.9c0-0.1-0.1-0.2-0.2-0.3c-0.2-0.3-0.4-0.5-0.7-0.6c0,0-0.8-0.2-0.7,0l0.5,0.5h-1.9l-1.3,1
				l0.1,2.1l1.4,1.7c1.2-0.2,2.5-0.1,2.8-1.5c0.1-0.4,0.1-0.8,0.1-1.3C1051.1,135.9,1051.1,135.3,1050.8,134.9z"/>
		</g>
	</g>
	<g>
		<g>
			<path class="st6" d="M1034.8,110.9c1.3-0.1,2.5-0.1,3.8-0.2c0.1-1,0.1-2,0-3c0,0.1,2-0.9,2.2-1.2c0.5-0.7,0.6-1.8,0.8-2.7
				c0.4-1.8,0.9-3.8-0.1-5.4s-3.1-2.2-4.9-2.3c-2.3-0.1-5,0.7-6.3,2.7c-1.1,1.8,0.3,4.5,0.7,6.5c0.2,0.9,0.5,2.1,1.4,2.4
				c0.5,0.3,1,0.2,1.5,0.5C1034.6,109,1034.4,110.1,1034.8,110.9z"/>
			<path class="st7" d="M1026.6,95.5c-0.2-1.3-0.3-2.6-0.4-3.9c-0.1-0.5-0.1-1,0.1-1.4c0.3-0.8,1-1.3,1.8-1.5
				c0.8-0.3,1.6-0.3,2.4-0.4c0.8-0.2,1.7-0.6,2.5-0.5c1.7,0.1,2.9,1.6,4.5,1.8c2.3,0.3,4.4-0.7,5.7,2c0.3,0.5,0.3,1.1,0.5,1.6
				c0.3,0.7,0.8,1.2,1.2,1.8c1.8,2.6,1.2,6.4-0.9,8.6c-1.1,1.1-1.5,2-2.9,2.3c0.7-1.3-0.3-6.7-2-7.3c-0.5-0.2-1.9,0.4-2.4,0.5
				c-1.2,0.2-2.3,0.3-3.4,0.8c-1.7,0.7-3.4,1.2-5.2,1.3c-0.3,0-0.5,0-0.7-0.1c-0.2-0.2-0.2-0.3-0.3-0.6
				C1027,98.8,1026.8,97.1,1026.6,95.5z"/>
		</g>
		<g>
			<path class="st2" d="M1025.6,115.6c0,0-11.5,14.8-17.4,18.4l0,0c-0.3,0.1-0.7,0.3-0.9,0.6c-0.3,0.4-0.4,0.8-0.5,1.3
				c-0.2,0.8-0.3,1.6-0.3,2.3s0,1.3,0.3,1.9c0.3,0.6,0.8,1.1,1.5,1.1c0.9,0,1.3-0.8,1.4-1.9c3.1-2.1,11.5-7.9,12.1-9.1
				c0.8-1.5,5-14.6,5-14.6L1025.6,115.6L1025.6,115.6z"/>
			<g>
				<polygon class="st7" points="1054.9,207.7 1055.4,209.8 1051.7,212.9 1049,211.3 1050.6,208.7 1054.4,205.5 				"/>
				<polygon class="st7" points="1046.3,141.6 1047.8,148.1 1045.9,178.2 1055,206.9 1050.9,208.8 1032.7,175.6 1030.5,165.1 
					1029.4,142.7 				"/>
			</g>
			<g>
				<polygon class="st7" points="1020.9,144.2 1020.6,172.2 1026,208.3 1030,208.3 1032.6,174.9 1038.1,141.6 				"/>
				<polygon class="st7" points="1030,207.8 1030,210 1025.5,212.2 1023.4,210 1025.5,207.8 				"/>
			</g>
			<path class="st2" d="M1051.1,149.5c0.1,2.6,0,6-1,6.1c-0.2,0-0.3-0.1-0.5-0.2c-1.7-0.9-2.9-2.3-4.6-3.1c-1.8-0.9-3.8-1.4-5.7-1.8
				c-2.9-0.5-5.9-0.8-9-0.9c-2.3,0-4.7,0.2-7.1,0.3c-1.9,0.2-3.8,0.8-5.8,0.6s-4-0.8-5.8-1.8c-0.1,0-0.2-0.1-0.2-0.2
				c0-0.1,0-0.2,0-0.3c0.4-1.2,0.8-2.3,1.5-3.2c0.8-1.1,1.4-2.4,2.1-3.6c1.3-2.5,2.5-5.1,3.3-7.8c1.3-3.6,2.8-7.2,4.2-10.8
				c0.9-2.5,1.8-5.1,2.9-7.4c0.9-1.8,2.7-4.6,4.7-5.4c0.7-0.3,1.4-0.3,2.2-0.3c2.3-0.1,4.5-0.2,6.8-0.2c0.8,0,1.7,0,2.4,0.3
				c1.2,0.5,1.8,1.7,2.3,2.8c2.5,4.9,4.1,10.3,5,15.9c0.5,2.8,0.9,5.8,1.3,8.7c0.3,3.3,0.7,6.5,0.7,9.8
				C1051,147.3,1051.1,148.3,1051.1,149.5z"/>
			<path class="st20" d="M1035.9,122.1c-0.1,1.3,0.1,2.6,0.3,3.8c1.1,7.8,2.3,15.6,3.3,23.3c-6.1-0.1-12.2-0.1-18.3-0.2
				c0.3-2.9,0.4-5.9,0.7-8.8c0.2-1.8,0.3-3.8,0.7-5.6c0.7-2.9,1.9-5.8,3.2-8.5c2.3-5.1,4.7-10.2,7-15.3c0.1-0.3,0.3-0.6,0.5-0.8
				c0.3-0.3,0.7-0.3,1-0.3c1.8-0.3,3.7-0.6,5.4-0.3c0.4,1.6-1.2,4.4-1.8,5.9C1037.1,117.5,1036.1,119.7,1035.9,122.1z"/>
			<g>
				<g>
					<g>
						<path class="st1" d="M1038.6,160.6h-17.5c-6.6,0-11.9-5.4-11.9-11.9v-6.6c0-6.6,5.4-11.9,11.9-11.9h17.5
							c6.6,0,11.9,5.4,11.9,11.9v6.6C1050.6,155.3,1045.2,160.6,1038.6,160.6z"/>
						<path class="st1" d="M1038.9,128.6c0-1.9,0-3.8,0-5.9c0-0.5-0.5-1-1.1-1c-4.7,0-9.4,0-14.1,0c-0.7,0-1.3,0-2,0
							c-0.6,0-1.1,0.4-1.1,1c0,1.9,0,3.8,0,5.9c-0.9,0-1.6,0.8-1.6,1.7l0,0h5.4l0,0c0-0.9-0.8-1.7-1.6-1.7c0-1.6,0-3.3,0-4.9
							c4.4,0,8.6,0,13,0c0.3,0,0.6,0,0.9,0c0,1.6,0,3.3,0,4.9h-0.1c-0.9,0-1.7,0.8-1.7,1.7l0,0h5.4l0,0
							C1040.4,129.3,1039.8,128.7,1038.9,128.6z"/>
					</g>
					<g class="st21">
						<path class="st4" d="M1047,154.6c-1.4,1.1-3,1.8-4.7,2.3c-2.3,0.6-4.8,1-7.2,1.3c-8.6,0.9-17.2,0-25.9-0.3l-0.1-0.4
							c0,1.5,1.3,3.1,2.8,3.1h34.6c2.2,0,3.9-1.8,3.9-3.9v-5.8C1049.6,152.3,1048.4,153.6,1047,154.6z"/>
					</g>
				</g>
				<path class="st20" d="M1039.4,142.4c-2.3,0-4.4,0-6.7,0c-0.3,0-0.4,0-0.7,0c0-1.6,0-3.3,0-4.9c0-0.8,0-1.7,0-2.4
					c0-0.3-0.3-0.5-0.5-0.5c-1.4,0-2.8,0-4.2,0c-0.3,0-0.5,0.3-0.5,0.5c0,2.3,0,4.4,0,6.7c0,0.3,0,0.4,0,0.7c-1.6,0-3.3,0-4.9,0
					c-0.8,0-1.7,0-2.4,0c-0.3,0-0.5,0.3-0.5,0.5c0,1.4,0,2.8,0,4.2c0,0.2,0.1,0.3,0.2,0.3c0.1,0.1,0.2,0.2,0.3,0.2
					c2.3,0,4.4,0,6.7,0c0.3,0,0.4,0,0.7,0c0,1.6,0,3.3,0,4.9c0,0.8,0,1.7,0,2.4c0,0.3,0.3,0.5,0.5,0.5c1.4,0,2.8,0,4.2,0
					c0.2,0,0.3-0.1,0.3-0.2c0.1-0.1,0.2-0.2,0.2-0.3c0-2.3,0-4.4,0-6.7c0-0.3,0-0.4,0-0.7c1.6,0,3.3,0,4.9,0c0.8,0,1.7,0,2.4,0
					c0.3,0,0.5-0.3,0.5-0.5c0-1.4,0-2.8,0-4.2C1039.9,142.6,1039.8,142.4,1039.4,142.4z"/>
			</g>
			<g>
				<path class="st6" d="M1007.3,139.6c0,0.1,0.1,0.2,0.1,0.3c0.2,0.3,0.4,0.6,0.7,0.7c0,0,0.8,0.3,0.7,0l-0.4-0.5l1.9,0.3l1.3-0.8
					l0.1-2.1l-1.3-1.8c-1.2,0.1-2.5-0.1-3,1.3c-0.2,0.4-0.2,0.8-0.3,1.3C1007.1,138.5,1007.1,139.1,1007.3,139.6z"/>
			</g>
		</g>
	</g>
	<g>
		<g>
			<polygon class="st6" points="1016.5,117.9 1019.6,115.8 1018.8,114.5 1016.3,115.5 1016.3,114.6 1013.8,116.7 1014.5,118.2 			
				"/>
			<path class="st2" d="M1014.4,115.7l1.2,3.1c0.2,0.5-11.5,7-12.5,7.5c-2.3,1-6.4,3.5-6.4,3.5c-3.2,0-9.1-1.6-11.1-2.4
				c-0.8-0.3-1.3-2.1-1.8-2.8c-0.6-0.9,0.2-2.5,0.7-3.2c1.1-1.5,2.8-2.6,4.6-2.9c0.7-0.2,1.3-0.2,2,0s1.5-2.8,2.1-2.4
				c1,0.7,1.5,5.4,2.8,5.7C997.3,122.2,1014,115,1014.4,115.7z"/>
		</g>
		<path class="st2" d="M990.5,101.6c-0.1,0-0.2,0-0.2,0c-3.3,0.2-7.2,4.4-9.5,6.9c-5.9,6.5-10,14-13.1,22.3c-1.7,4.5-3.1,9-4.5,13.6
			c-0.4,1.3-3,12.9-3.7,13c6.6-0.8,13.3-1.5,19.9-1.1c6.6,0.4,13.1,2.1,18.8,5.5c2.9-14.9,5-30.3,5.8-45.4c0.1-1.8,0.3-3.7,0.2-5.4
			c-0.2-2.1-1.3-3-2.3-4.6c-0.4-0.5-0.8-1.1-1.3-1.5C998,102.7,993.9,101.5,990.5,101.6z"/>
		<g>
			<g>
				<polygon class="st13" points="967.4,152.2 974.3,180.1 974.4,200.8 977.8,201.5 979.1,182.3 982.4,147.2 				"/>
			</g>
			<polygon class="st7" points="977.8,202.1 978.4,204.2 977.9,208.3 975.2,208.3 974.2,202.3 974.5,201.4 			"/>
		</g>
		<g>
			<polygon class="st13" points="993.7,149.1 994.3,173.3 991.2,207.4 987.8,207.7 986.6,176.4 979.9,147.9 			"/>
			<polygon class="st7" points="991,206.8 995.4,209.2 995.1,211.3 987.2,210.3 987.6,207.3 			"/>
		</g>
		<polygon class="st14" points="994.7,152.2 996.9,180.1 994.7,199.3 985.7,198.8 984.1,177 980.3,153.3 980.9,149.6 993.7,149.8 		
			"/>
		<polygon class="st14" points="981.1,178.1 980.1,198.1 972.3,197.7 972.5,178.7 967.6,154.9 968.6,148.2 981.8,149 		"/>
		<path class="st20" d="M996.3,154.5c-7.9-1.3-20.9-4.7-28.9-6.1c4.2-13.9,10.8-29.3,18.6-41.5c1.4-2.2,3.2-4.5,5.7-5
			c2.7-0.6,7.4,1.3,7.9,4.3c0.8,4.4-0.8,10.5-1.3,15C997.2,131.2,998.3,144.5,996.3,154.5z"/>
		<g>
			<path class="st6" d="M994.9,92.2c3-5.2,9.6-1.8,10.1,3.4c0.3,3.4-3.1,7.2-6.5,7.5c-0.1,0.8-0.2,1.7-0.3,2.5
				c-0.8-0.3-1.8-0.5-2.6-0.8c-0.3-0.1-0.6-0.2-0.7-0.4c-0.1-0.2,0-0.3,0-0.5c0.2-0.6,0.3-1.1,0.5-1.7c-0.1,0-0.1-0.1-0.2-0.2
				c-1.4-1.1-2.1-3-2-4.9C993.3,95.5,994,93.7,994.9,92.2z"/>
			<g>
				<g>
					<path class="st7" d="M995.2,94c-1.4,1.4-1.6,3.6-1.7,5.5c-0.1,1.7-0.3,2.7-2.2,2.3c-1-0.3-2.8-0.8-3.3-1.8
						c-0.3-0.8,0.8-2.3,1.5-2.8c0.5-0.3,1.2-0.3,1.7-0.7c0.2-0.2,0.3-0.4,0.4-0.6c0.5-0.9,0.8-1.8,1.1-2.9c0.2-0.7,0.2-1.4,0.5-2
						c0.4-0.9,1.6-1.7,2.3-2.3c1.4-1.2,4.7-2.1,5.8,0c0.3,0.5,0.3,1.1,0.3,1.6c0,0.3-0.1,0.7-0.2,1c-0.6,1.2-1.8,0.8-2.8,1
						C997.3,92.4,996.1,93,995.2,94z"/>
					<path class="st7" d="M1003.5,98.7c-0.3,0.8-1.3,1.6-1.2,2.5c0,0.4,0.3,0.8,0.4,1.2c0.4,1.1,0.3,2.3-0.4,3.3
						c1.7,0.8,3.4,1.6,5.1,2.4c0.3,0.1,0.5,0.3,0.8,0.3c0.6,0,1-0.7,1.3-1.3c0.5-1.1,1-2.3,0.8-3.4c-0.1-0.5-0.3-1.1-0.4-1.6
						c-0.5-2.6,2.7-5.1,1.7-7.6c-0.4-1.1-1.6-1.8-2.3-2.7c-1.3-1.6-1.5-3.9-2.9-5.4c-2.7-2.8-7.9-0.5-7.5,3.4
						C999,92.9,1005,95.2,1003.5,98.7z"/>
				</g>
			</g>
		</g>
		<path class="st2" d="M990.1,102.4c0,0-13.8,33.3-10.8,41.8s4.4,11.8,4.4,11.8l-21.2,0.9C962.6,156.9,976.2,108.3,990.1,102.4z"/>
		<g>
			<g>
				<rect x="940.3" y="63.2" class="st7" width="57.2" height="76.2"/>
				<polygon class="st22" points="944.5,136 945.4,136 995.8,137.6 994.5,65.6 992.2,66.3 				"/>
				<rect x="943.1" y="65.6" class="st20" width="51.4" height="70.5"/>
				<g>
					<g>
						<path class="st8" d="M975.4,58.8h-0.3v-0.3c0-2.2-2-4-4.6-4h-3.3c-2.5,0-4.6,1.8-4.6,4v0.3h-0.3c-2.5,0-4.6,1.8-4.6,4v4.4H980
							v-4.4C980,60.6,977.9,58.8,975.4,58.8z M971.7,59h-5.9c-0.6,0-1.1-0.5-1.1-1.1s0.5-1.1,1.1-1.1h5.9c0.6,0,1.1,0.5,1.1,1.1
							S972.4,59,971.7,59z"/>
					</g>
					<rect x="957.7" y="65.2" class="st8" width="22.3" height="2.1"/>
				</g>
				<g>
					<rect x="949.8" y="91.4" class="st8" width="38.6" height="1"/>
					<rect x="949.8" y="99" class="st8" width="38.6" height="1"/>
					<rect x="949.8" y="106.7" class="st8" width="38.6" height="1"/>
					<rect x="949.8" y="114.3" class="st8" width="38.6" height="1"/>
				</g>
				<rect x="949.8" y="129.8" class="st8" width="14.2" height="0.3"/>
				<path class="st8" d="M984,123.3c-0.7-0.3-1.4-0.2-2.1,0.2c-0.1-0.1-0.2-0.1-0.3-0.2c-1-0.4-2.2-0.1-2.9,0.8
					c-0.7,0.8-0.8,2-0.3,2.9c0.6,0.9,1.7,1.4,2.7,1.3c0.3-0.1,0.5-0.2,0.7-0.3c0.5,0.3,1.1,0.3,1.7,0.3c1.3-0.3,2.1-1.3,2.1-2.5
					C985.6,124.7,985,123.7,984,123.3z M981.4,127.8c-0.8,0.3-1.8,0.1-2.4-0.7c-0.6-0.7-0.7-1.8-0.2-2.5c0.5-0.8,1.4-1.2,2.3-1
					c0.1,0,0.3,0.1,0.3,0.1c-0.2,0.1-0.3,0.3-0.4,0.4c-0.7,0.8-0.8,2-0.3,2.9C981,127.3,981.2,127.5,981.4,127.8L981.4,127.8z
					 M982.9,125.7c0,0.8-0.4,1.4-1,1.8c-0.2-0.1-0.3-0.3-0.5-0.4c-0.6-0.7-0.7-1.8-0.2-2.5c0.2-0.3,0.4-0.5,0.7-0.7
					C982.5,124.3,982.8,125,982.9,125.7z M983.8,127.8c-0.5,0.2-1,0.2-1.5,0c0.6-0.5,0.9-1.3,1-2c0-0.8-0.4-1.5-1-2
					c0.3-0.2,0.8-0.2,1.2-0.1c1,0.2,1.8,1.1,1.8,2.1C985.2,126.6,984.6,127.4,983.8,127.8z"/>
			</g>
			<g>
				<path class="st7" d="M950.2,73.4h0.7v5.2h-0.7V73.4z"/>
				<path class="st7" d="M955.5,73.4h0.7v5.2h-0.7l-2.5-4.2v4.2h-0.7v-5.2h0.7l2.5,4.2V73.4z"/>
				<path class="st7" d="M960.4,76.3c0.2,0.2,0.3,0.5,0.3,0.9s-0.2,0.8-0.4,1.1c-0.3,0.3-0.8,0.4-1.3,0.4c-0.6,0-1-0.1-1.3-0.3
					c-0.3-0.3-0.4-0.6-0.5-1l0.5-0.1c0.1,0.7,0.5,0.9,1.2,0.9c0.8,0,1.2-0.3,1.2-0.9c0-0.3-0.1-0.5-0.3-0.6s-0.4-0.3-0.8-0.3
					l-0.5-0.2c-0.5-0.2-0.8-0.3-1-0.5s-0.3-0.5-0.3-0.9s0.2-0.8,0.4-1.1c0.3-0.3,0.7-0.4,1.3-0.4s0.9,0.1,1.2,0.3
					c0.3,0.3,0.4,0.6,0.5,1l-0.5,0.1c-0.1-0.7-0.4-0.9-1.1-0.9c-0.8,0-1.1,0.3-1.1,0.9c0,0.3,0.1,0.5,0.2,0.6
					c0.2,0.2,0.3,0.3,0.7,0.3l0.5,0.2C959.9,76,960.3,76.1,960.4,76.3z"/>
				<path class="st7" d="M964.9,73.4h0.7V77c0,0.3,0,0.6-0.1,0.8c-0.1,0.3-0.2,0.4-0.3,0.5c-0.1,0.2-0.3,0.3-0.4,0.3
					c-0.2,0.1-0.3,0.1-0.5,0.2c-0.2,0-0.3,0-0.5,0s-0.3,0-0.5,0s-0.3-0.1-0.5-0.2s-0.3-0.2-0.4-0.3c-0.1-0.2-0.2-0.3-0.3-0.5
					c-0.1-0.3-0.1-0.5-0.1-0.8v-3.5h0.7V77c0,0.6,0.2,0.9,0.4,1.1c0.2,0.1,0.3,0.2,0.4,0.2c0.1,0,0.3,0.1,0.4,0.1
					c0.2,0,0.3,0,0.4-0.1c0.1,0,0.3-0.1,0.4-0.2c0.3-0.2,0.4-0.6,0.4-1.1v-3.5L964.9,73.4L964.9,73.4z"/>
				<path class="st7" d="M967,73.4h1.6c0.3,0,0.6,0.1,0.8,0.2c0.3,0.1,0.4,0.3,0.5,0.3c0.2,0.3,0.3,0.7,0.3,1c0,0.8-0.3,1.3-0.9,1.4
					c0.2,0.1,0.3,0.3,0.3,0.5l0.8,1.8h-0.7L969,77c-0.1-0.2-0.2-0.3-0.3-0.3c-0.1-0.1-0.3-0.1-0.5-0.1h-0.6v2.2H967V73.4z M967.6,76
					h0.9c0.3,0,0.6-0.1,0.8-0.3c0.2-0.2,0.3-0.4,0.3-0.8s-0.1-0.5-0.3-0.8c-0.2-0.2-0.4-0.3-0.8-0.3h-0.9V76z"/>
				<path class="st7" d="M972.6,73.4h0.8l1.7,5.2h-0.6L974,77h-2l-0.5,1.6h-0.6L972.6,73.4z M973,74l-0.8,2.6h1.7L973,74z"/>
				<path class="st7" d="M979.2,73.4h0.7v5.2h-0.7l-2.5-4.2v4.2H976v-5.2h0.7l2.5,4.2V73.4z"/>
				<path class="st7" d="M983.1,73.9c-0.4,0-0.8,0.1-1,0.3c-0.2,0.3-0.3,0.6-0.3,1.1c0,0.2,0,0.4,0,0.8s0,0.6,0,0.8
					c0,0.3,0.1,0.4,0.1,0.6c0.1,0.2,0.2,0.3,0.3,0.4c0.3,0.3,0.6,0.3,1,0.3c0.8,0,1.1-0.4,1.2-1.2h0.5c0,0.5-0.2,0.9-0.4,1.3
					c-0.3,0.3-0.7,0.4-1.3,0.4c-0.8,0-1.3-0.3-1.6-0.8c-0.2-0.3-0.3-0.5-0.3-0.8c-0.1-0.3-0.1-0.7-0.1-1.2s0-0.8,0.1-1.2
					c0.1-0.3,0.2-0.6,0.3-0.8c0.3-0.5,0.8-0.8,1.6-0.8c0.5,0,0.9,0.1,1.2,0.3c0.3,0.3,0.4,0.6,0.5,1l-0.5,0.1
					C984.1,74.1,983.8,73.9,983.1,73.9z"/>
				<path class="st7" d="M985.9,73.4h2.8V74h-2.2v1.8h2v0.5h-2v1.9h2.3v0.5h-2.9L985.9,73.4L985.9,73.4z"/>
				<path class="st7" d="M960.9,85.3H960v1.9h-0.7V82h1.5c1.1,0,1.6,0.6,1.6,1.7C962.4,84.8,961.9,85.3,960.9,85.3z M960,84.8h0.8
					c0.7,0,1-0.4,1-1.2c0-0.8-0.3-1.2-1-1.2H960V84.8z"/>
				<path class="st7" d="M967.1,86.5c-0.2,0.3-0.3,0.4-0.7,0.6c-0.3,0.2-0.6,0.2-1,0.2s-0.8-0.1-1-0.2c-0.3-0.2-0.5-0.3-0.7-0.6
					c-0.2-0.3-0.3-0.5-0.3-0.8c-0.1-0.3-0.1-0.7-0.1-1s0-0.7,0.1-0.9c0-0.3,0.1-0.5,0.2-0.8c0.1-0.3,0.3-0.4,0.3-0.6
					c0.3-0.3,0.8-0.5,1.4-0.5c0.8,0,1.3,0.3,1.7,0.8c0.2,0.3,0.3,0.5,0.3,0.8c0.1,0.3,0.1,0.7,0.1,1.1s0,0.8-0.1,1.1
					C967.3,86,967.2,86.3,967.1,86.5z M965.5,86.8c0.3,0,0.5-0.1,0.7-0.2s0.3-0.3,0.4-0.5c0.1-0.2,0.2-0.4,0.3-0.7
					c0.1-0.3,0.1-0.5,0.1-0.8s0-0.6-0.1-0.8c-0.1-0.3-0.1-0.5-0.3-0.7c-0.3-0.4-0.6-0.7-1.2-0.7c-0.4,0-0.8,0.2-1,0.4
					c-0.3,0.3-0.4,0.9-0.4,1.8s0.2,1.4,0.4,1.8C964.6,86.7,965,86.8,965.5,86.8z"/>
				<path class="st7" d="M968.7,87.3v-5.2h0.7v4.7h1.9v0.5H968.7L968.7,87.3z"/>
				<path class="st7" d="M972.2,82h0.7v5.2h-0.7V82z"/>
				<path class="st7" d="M976.1,82.4c-0.4,0-0.8,0.1-1,0.3c-0.2,0.3-0.3,0.6-0.3,1.1c0,0.2,0,0.4,0,0.8s0,0.6,0,0.8
					c0,0.3,0.1,0.4,0.1,0.6c0.1,0.2,0.2,0.3,0.3,0.4c0.3,0.3,0.6,0.3,1,0.3c0.8,0,1.1-0.4,1.2-1.2h0.5c0,0.5-0.2,0.9-0.4,1.3
					c-0.3,0.3-0.7,0.4-1.3,0.4c-0.8,0-1.3-0.3-1.6-0.8c-0.2-0.3-0.3-0.5-0.3-0.8c-0.1-0.3-0.1-0.7-0.1-1.2c0-0.4,0-0.8,0.1-1.2
					c0.1-0.3,0.2-0.6,0.3-0.8c0.3-0.5,0.8-0.8,1.6-0.8c0.5,0,0.9,0.1,1.2,0.3c0.3,0.3,0.4,0.6,0.5,1l-0.5,0.1
					C977.1,82.7,976.8,82.4,976.1,82.4z"/>
				<path class="st7" d="M980.4,87.3h-0.7v-1.8l-1.6-3.4h0.7l1.3,2.8l1.3-2.8h0.7l-1.6,3.4v1.8H980.4z"/>
			</g>
		</g>
	</g>
</g>
<g>
	<g class="st23">
		<path class="st24" d="M553.9,198.9c-7.7,0-15.3,0.2-22.9,0.8c-2.9,0.3-5.7,0.7-8.5,1c-5.7,0.4-11.4,1.1-17.2,1.5
			c-4.7,0.3-9.3,0.4-14,0.8c-4.3,0.4-9.2,0.3-13.5-0.3c-3.2-0.4-6.4-0.6-9.6-1.3c-3.5-0.7-7.3-1.2-11-1.2c-5.2,0-10.3,0-15.3,1.3
			c-1.8,0.4-3.9,1.2-5.3,2.2c-3.1,2.2-3.4,7.7-0.4,10c5.1,3.8,16.1,5.3,23.3,5.4c7.9,0.1,15.6-0.4,23.4-0.6c7.3-0.3,14.6-0.5,22-0.5
			c15.1,0,30,0,45-0.7c14.1-0.7,28.2-0.4,42.3-0.4c14.4,0,28.9,0.1,43.2,1.5c6.3,0.6,12.7,0.8,18.9,1.2c5.6,0.4,11,0,16.6-0.4
			c4.8-0.3,9.4-1.1,13.7-2.6c3.3-1.1,9.4-4.8,10.5-7.5c2.9-7.8-41-7.6-47.8-7.6c-7.6,0-15.1,0.2-22.7,0c-3.2-0.1-6.3-0.5-9.4-1.1
			c-3.1-0.5-6.2-0.4-9.3-0.5c-13-0.9-26.2-0.7-39.2-0.7C562.4,198.9,558.2,198.9,553.9,198.9z"/>
	</g>
	<g>
		<g>
			<g>
				<polygon class="st25" points="481.7,71.9 480.1,68 478.4,68.6 478.9,71.5 478,71.5 479.9,74.6 481.7,74.1 				"/>
			</g>
			<g>
				<polygon class="st26" points="469.1,101.7 482,92.5 478.9,73.7 482.6,73 491.1,94.3 472.8,110.6 				"/>
			</g>
		</g>
		<g>
			<g>
				<path class="st27" d="M653.4,26.1c0-0.5,0-1.1,0-1.7l-0.8-1.6c-0.2-0.3-0.6-0.2-0.8,0l-0.7,1.6v1.7c-0.6,0-1.7,0.5-1.7,1.1
					c0,0.5,0.5,1.1,1.1,1.1h0.5v58c0,3.3-1.8,6-4.2,5.9c-1.9-0.1-3.6-1.7-3.9-4.3c-0.1-0.6-0.5-1.1-1.2-1.1h-0.1
					c-0.7,0-1.3,0.6-1.1,1.3c0.5,3.8,3.5,6.5,6.4,6.5c2.3,0,4.1-1.1,5.2-2.9c1.3-2.3,1.2-4.8,1.2-7.4c0-2.4,0-4.8,0-7.2
					c0-3.3,0-6.7,0-10.1c0-3.9,0-7.7,0-11.5s0-7.7,0-11.4c0-3.3,0-6.7,0-10c0-1.9,0-3.9,0-5.8h0.4c0.6,0,1.1-0.5,1.1-1.1
					S654,26.1,653.4,26.1z"/>
				<polygon class="st22" points="653.4,58.6 651.1,56.3 651.1,52.4 653.4,52.4 				"/>
			</g>
			<g>
				<path class="st7" d="M637.6,58l0.4-2.1c1.2-7.4,4.1-14.4,8.4-20.6l5.5-7.8c-13.2,0.5-24.6,8.4-30.2,19.6
					c-1.7,3.4-2.8,7.1-3.3,11.1c2.9-0.9,6.2-1.3,9.8-1.3C631.6,56.7,634.8,57.2,637.6,58z"/>
				<path class="st7" d="M666.1,53.7l1,4.6h0.4c3-1,6.6-1.6,10.5-1.6s7.5,0.6,10.6,1.6c-0.6-5-2.3-9.7-4.8-13.8
					c-6.2-10.2-17.4-17-30.3-17c-0.4,0-0.8,0-1.1,0l4.3,6.3C661.9,40.2,664.3,46.8,666.1,53.7z"/>
				<path class="st20" d="M638,55.8l-0.4,2.1h0.1c3.7-1.6,8.7-2.6,14.3-2.6c5.8,0,11.1,1.1,14.9,2.8h0.2l-1-4.6
					c-1.8-6.8-4.2-13.4-9.5-19.9l-4.3-6.3c-0.1,0-0.3,0-0.4,0l-5.5,7.8C642,41.4,639.2,48.4,638,55.8z"/>
			</g>
		</g>
		<g>
			<g>
				<g>
					<g>
						<polygon class="st28" points="600.5,105.2 598.7,103.5 598.6,101.4 598.2,101.1 597.9,101.7 597.4,99.9 596.1,99.1 
							594.2,99.8 593.2,101.5 594,103.3 596.1,104.6 598.4,107.1 						"/>
					</g>
					<polygon class="st26" points="600.3,103.1 597.1,106.9 605.7,119.9 608.8,121 622.4,110.2 618.8,102.8 608.7,111.3 					"/>
				</g>
				<g>
					<g>
						<polygon class="st29" points="643.4,205.3 643.8,207.5 640.1,210.6 637.5,208.9 639.1,206.3 642.9,203.2 						"/>
						<polygon class="st7" points="630.2,138.4 634.4,148.1 634.8,175.3 643.5,204.6 639.4,206.4 621.9,172.4 619.8,161.6 
							619.1,139 						"/>
					</g>
					<g>
						<polygon class="st7" points="609.9,140.6 609.6,169.1 615,205.9 619.1,205.9 621.7,171.9 627.3,138 						"/>
						<polygon class="st29" points="619.1,205.4 619.1,207.6 614.6,209.9 612.4,207.6 614.6,205.4 						"/>
					</g>
				</g>
				<path class="st26" d="M618.1,102l11-0.4c0,0,6.6,5.7,10,20.7c3.4,15.2-0.6,37.2-0.6,37.2s-29.4-4-34.3-4.5l7.4-30.1L618.1,102z"
					/>
				<g>
					<path class="st28" d="M622,103.1c1.3-0.1,2.6-0.3,3.9-0.4c0-1.1-0.1-2-0.2-3.1c1.1-0.4,2.3-1,2.5-2c0.1-0.4,0-0.7-0.1-1.1
						c-0.3-1.4-0.5-2.9-0.7-4.3c-0.1-0.5-0.2-1.1-0.4-1.4c-0.4-0.8-1.4-1.1-2.3-1.2c-2.3-0.4-4.7,0.1-6.4,1.6
						c-0.4,0.4-0.9,0.9-1.1,1.4c-0.4,0.9-0.1,1.8,0.2,2.7c0.2,0.8,0.4,1.7,0.6,2.5c0.3,1,0.6,2,1.5,2.4c0.5,0.2,1.1,0.2,1.5,0.4
						C621.7,101.1,621.6,102.2,622,103.1z"/>
					<path class="st7" d="M609.5,88.6c0-1,0.1-2,0.4-2.9c0.4-1.6,2.2-2.3,3.8-2.4c3.4-0.3,6.8-1.8,10.1-0.6c1.9,0.7,4.5,0.9,6.3,1.8
						c0.7,0.4,1.3,1.1,1.8,1.8c1.6,2.4,1.6,5.7,0,8.2c-0.4,0.5-0.8,1.1-1.2,1.5c-0.9,1-2,2.2-3.3,2.6c0-1.1,1-4.7,0.2-5.5
						c-1.3-1.5-4.4-1-6.2-0.6s-3.5,1.7-5.3,1.9c-1.3,0.2-3-0.4-4.1-1.1C610.1,92.1,609.5,90.4,609.5,88.6z"/>
				</g>
				<path class="st20" d="M621.1,103.4l-11.5,46.2l-1,6.1l14.4,1.8c0,0-0.5-22.1-0.4-25c0.2-2.9,2.3-9.3,2.6-16.2
					c0.2-4,1.4-11.1,0.5-13.4L621.1,103.4z"/>
			</g>
		</g>
		<g>
			<g>
				<polygon class="st28" points="653.9,77.8 653.4,73.5 655.2,73.3 656.2,76.1 657,75.6 657,79.3 655.2,79.8 				"/>
				<polygon class="st30" points="680.9,100.4 664.7,95.9 657.5,77.9 653.8,79.3 657.7,102.3 676.3,112.4 				"/>
			</g>
			<g>
				<g>
					<polygon class="st26" points="677.5,143.8 677.5,149.5 669.8,174.3 671.5,200 666.8,200.9 659.3,169.4 659.7,160.2 
						663.3,141.4 					"/>
					<polygon class="st26" points="671.5,150.5 678.9,203 682.4,203 684.7,174.5 689.6,145.8 					"/>
					<polygon class="st29" points="667.6,201.6 663.9,205.4 664.9,207.4 672.5,203.8 671.1,201 					"/>
					<polygon class="st29" points="678.9,204.2 674.5,207 675,209.2 683.2,207.6 682.6,204.5 					"/>
				</g>
				<g>
					<path class="st28" d="M667.3,86.5c3.1,0.3,6-2.3,9-1.7c1.9,0.4,3.5,2.2,4.1,4.1c0.3,0.9,0.4,1.9,0.1,2.8
						c-0.2,0.6-0.5,1.1-0.9,1.6c-0.5,0.6-1.1,1.1-1.8,1.6c0.4,0.6,0.8,1.2,1.3,1.8c-1.4,0.5-2.8,1.1-4.3,1.6c-0.4-0.8-0.6-1.7-1-2.5
						c-0.4,0-0.9-0.1-1.2-0.2c-2.6-0.7-4.6-2.9-5.2-5.5C667.2,88.9,667.2,87.7,667.3,86.5z"/>
					<polygon class="st7" points="668.1,87.4 677.6,86.3 679.5,93.6 682.2,91.5 680.9,79.5 667.4,79.2 661.5,82.6 661.8,86 
						667,89.6 					"/>
				</g>
				<path class="st30" d="M671.7,99.4l11.4-4.4c0,0,5.3,11.2,9.8,27.3c4.5,16-1.7,38.3-1.7,38.3s-31.6-6.6-36.8-7.7l10.4-32.1
					L671.7,99.4z"/>
			</g>
			<g>
				<polygon class="st28" points="650.6,80 650.3,75.6 652.2,75.5 653,78.4 653.8,77.8 653.6,81.6 651.7,82.1 				"/>
				<polygon class="st30" points="676,104.4 660.1,98.7 654.1,80.4 650.4,81.5 652.7,104.7 670.5,115.9 				"/>
			</g>
		</g>
		<g>
			<g>
				<path class="st31" d="M616.1,22.5c-31.2,4.2-45.6-11.3-47.5-13.5c0,0,0-0.2-0.1-0.2c-0.1-0.1-0.2,0.1-0.2,0.1
					c-2.3,1.9-18.9,14.9-49.1,5.8c0,0-9.2,54.7,6.9,78.6c17.1,25.5,32.6,34.1,32.7,34c0.1,0.1,16.9-5.7,37.8-28.4
					C616.2,77.8,616.1,22.5,616.1,22.5z"/>
				<path class="st32" d="M611.1,27.8c-28.3,3.7-41.3-10.1-43.1-12.2c0,0,0-0.2-0.1-0.1c-0.1-0.1-0.1,0.1-0.1,0.1
					c-2,1.7-17.2,13.2-44.5,5.1c0,0-8.2,48.7,6.3,70c15.6,22.7,29.5,31.7,29.6,31.6c0.1,0.1,15.4-6.4,34.3-26.5
					C611.3,77.1,611.1,27.8,611.1,27.8z"/>
				<g class="st33">
					<path class="st4" d="M567.4,20.5C567.4,20.5,567.5,20.3,567.4,20.5c0.2-0.2,0.2,0,0.2,0c1.8,2.1,15,16,43.4,12.9
						c0.3-5,0.3-8.2,0.3-8.2C583,29,570,15.1,568.2,13.1c0,0,0-0.2-0.1-0.1c-0.1-0.1-0.1,0.1-0.1,0.1c-2,1.7-17.2,13.2-44.5,5.1
						c0,0-0.5,3.1-1.1,8.1C550,33.9,565.3,22.3,567.4,20.5z"/>
				</g>
			</g>
			<path class="st34" d="M601.8,40.8c-21.3,2.8-33.6-8.5-35-10c0,0,0-0.2-0.1-0.1c-0.1-0.1-0.1,0.1-0.1,0.1
				c-1.6,1.3-15.4,10.5-36,4.2c0,0-3.9,37.3,7.1,53.6c11.7,17.5,22.4,23.3,22.5,23.3c0.1,0.1,11.5-4,25.9-19.5
				C599.4,78,601.8,40.8,601.8,40.8z"/>
		</g>
		<g>
			<polygon class="st29" points="507,207.3 506.9,208 506.8,210.1 502.4,211.9 500.6,209.7 502.9,207.7 503.1,207.6 503.1,207.9 			
				"/>
			<path class="st7" d="M507.2,207.3H507l0.2-1.5l-4.1,1.8l-3.4-35.8l-0.4-1.7c3.2,0.1,7,0.1,10.8,0.1L507.2,207.3z"/>
			<polygon class="st35" points="507,207.3 503.1,207.9 503.1,207.6 507.1,205.8 			"/>
			<path class="st7" d="M524.4,170.2l-0.8,9.3l-7.9,24.3l-3.9-0.5l-0.1,0.4l0,0l2.8-25l-2.5-8.5C516.6,170.3,521,170.3,524.4,170.2z
				"/>
			<polygon class="st29" points="515.7,203.9 515.9,204 517.7,206.4 515.3,208.2 511.5,205.6 511.8,203.9 515.5,204.3 			"/>
			<polygon class="st36" points="515.7,203.9 515.5,204.3 511.8,203.9 511.8,203.4 			"/>
			<path class="st30" d="M514.6,111.8c-0.4-1.1-1-2.4-1.8-3.3c-1.2-1.5-3.2-2.3-5-2.1l0,0c0.1-0.3,0.1-0.5,0.1-0.8
				c0-1.4-1-2.6-1.7-3.7c-0.1-0.1-0.1-0.3-0.2-0.4c-0.2-0.3-0.3-0.6-0.4-1l0.3,0.2c0.6,0.5,1.4,1,2.3,1.1l7.9,3.8l3.2,12.9l-0.8,0.4
				C516.1,117.9,515.6,114.1,514.6,111.8z"/>
			<path class="st37" d="M497.5,115.8c-0.5,2.4-2.4,4.1-4.1,5.7c1.3-3.4,2.7-6.4,4.1-9.1C497.7,113.6,497.8,114.8,497.5,115.8z"/>
			<path class="st30" d="M492,133.1c1.5,0.8,3.2,1.1,4.8,1.1c1.3,0,2.7-0.2,4.1,0.2c1.3,0.3,2.6,1.1,3,2.5c0.2,0.7,0.1,1.6,0.7,2
				c0.3,0.2,0.7,0.2,1,0.2c1.1,0,2.3,0,3-0.8c1.1-1.2,0.4-3.7,1.9-4.4c0.4-0.2,1-0.2,1.4-0.3c2-0.4,3-2.6,2.8-4.8
				c0.7,0.6,1.5,1.1,2.4,1.1c1.1,0,1.9-0.6,2.7-1.3c0.5-0.4,1.1-0.8,1.6-1.2v0.1l8.2,42.5c-1,0.1-2.9,0.2-5.5,0.3l0.6-7l-14.4,1.8
				l1.5,5.2c-0.7,0-1.3,0-2,0l0.4-5.2l-13.7-4.7l2.4,9.8c-4.9-0.1-8.5-0.2-8.5-0.2s-3-21.9-0.4-38.2
				C491,132.3,491.5,132.7,492,133.1z"/>
			<path class="st37" d="M510.5,165l-0.4,5.2c-3.9,0-7.7-0.1-10.8-0.1l-2.4-9.8L510.5,165z"/>
			<path class="st37" d="M525,163.4l-0.6,7c-3.3,0.1-7.8,0.1-12.2,0l-1.5-5.2L525,163.4z"/>
			<path class="st38" d="M536.7,109.9c0.1-0.5,2.9-3.3,3.1-3c0.2,0.4,0.3,0.9,0.4,1.3c1.1-0.6,3.9-3,3.7-0.3
				c-0.1,1.1-2.1,3.3-3.2,3.6h-0.1l-3.8-0.7C536.6,110.7,536.6,110.3,536.7,109.9z"/>
			<path class="st30" d="M536.7,111L536.7,111c0.3,0.5,0.7,1,1.1,1.7c0.9-0.4,1.8-0.6,2.7-1l1,0.2c-5.1,6.5-13.1,10.6-20,15.6
				l-2.2-8.9L536.7,111z"/>
			<path class="st30" d="M517.2,129.9c-0.9,0-1.7-0.5-2.4-1.1c0-0.4-0.1-0.9-0.3-1.2c-0.8-2.3-2.8-4.1-4.2-6.1
				c-2.9-3.9-4.8-9.1-3.1-13.7c0.2-0.4,0.4-0.9,0.4-1.3l0,0c1.8-0.2,3.8,0.7,5,2.1c0.8,1,1.3,2.2,1.8,3.3c0.9,2.3,1.5,6.1,4,7
				l0.8-0.4l2.2,8.9c-0.5,0.4-1.1,0.8-1.6,1.2C519.2,129.3,518.3,129.9,517.2,129.9z"/>
			<path class="st37" d="M536.8,111l3.8,0.7c-0.9,0.4-1.8,0.6-2.7,1C537.4,111.9,537,111.5,536.8,111z"/>
			<path class="st39" d="M505.7,100.4c-0.7-3.3,0.1-8.3,2.2-10.2c0.9-0.7,1.8-0.9,2.9-0.9c0.5,0,0.7,0.1,1,0.1
				c0.8,1.1,1.3,2.3,1.2,3.5c-0.1,1-0.7,1.8-0.7,2.8c-0.1,1.9-2.9,4-1.8,5.9c-0.8,0.3-1.5,0.3-2.2,0.2l-2.3-1.1
				C506,100.6,505.8,100.5,505.7,100.4z"/>
			<path class="st39" d="M508.3,101.8c-0.9-0.2-1.6-0.5-2.3-1.1L508.3,101.8z"/>
			<path class="st39" d="M512.3,95.7c0.1-1.1,0.6-1.8,0.7-2.8c0.1-1.2-0.4-2.5-1.2-3.5c0.1,0,0.3-0.1,0.4-0.2
				c0.4-0.3,0.7-0.9,0.9-1.4c1,0.6,1.8,1.8,1.9,3.5c0.2,1.9,0.2,3.9-0.4,5.8c-0.6,1.9-2,3.7-3.9,4.4c-0.1,0-0.2,0.1-0.4,0.1
				C509.4,99.6,512.2,97.7,512.3,95.7z"/>
			<path class="st7" d="M489.1,129.2c0.2,1,0.7,1.9,1.4,2.6c0.1-0.4,0.1-0.7,0.2-1.1c-0.1,0.4-0.1,0.7-0.2,1.1
				c0.4,0.4,1,0.9,1.6,1.2c1.5,0.8,3.2,1.1,4.8,1.1c1.3,0,2.7-0.2,4.1,0.2c1.3,0.3,2.6,1.1,3,2.5c0.2,0.7,0.1,1.6,0.7,2
				c0.3,0.2,0.7,0.2,1,0.2c1.1,0,2.3,0,3-0.8c1.1-1.2,0.4-3.7,1.9-4.4c0.4-0.2,1-0.2,1.4-0.3c2-0.4,3-2.6,2.8-4.8
				c0-0.4-0.1-0.9-0.3-1.2c-0.8-2.3-2.8-4.1-4.2-6.1c-2.9-3.9-4.8-9.1-3.1-13.7c0.2-0.4,0.4-0.9,0.4-1.3c0.1-0.3,0.1-0.5,0.1-0.8
				c0-1.4-1-2.6-1.7-3.7c-0.1-0.1-0.1-0.3-0.2-0.4c-0.2-0.3-0.3-0.6-0.4-1c0-0.1,0-0.1,0-0.2c-2-2-2.8-5.8-1.5-8.6
				c0.1-0.2,0.2-0.4,0.3-0.4c-0.1,0.2-0.2,0.4-0.3,0.4c-1.3,2.8-0.5,6.6,1.5,8.6c-0.7-3.3,0.1-8.3,2.2-10.2c0.9-0.7,1.8-0.9,2.9-0.9
				c0.5,0,0.7,0.1,1,0.1c0.1,0,0.3-0.1,0.4-0.2c0.4-0.3,0.7-0.9,0.9-1.4c1,0.6,1.8,1.8,1.9,3.5c0.2,1.9,0.2,3.9-0.4,5.8
				c-0.6,1.9-2,3.7-3.9,4.4c-0.1,0-0.2,0.1-0.4,0.1c0.1,0.2,0.2,0.4,0.4,0.4c1,1.1,2.6,1.3,4.1,1.5c0.2,0,0.4,0.1,0.5,0
				c0.3-0.1,0.4-0.4,0.4-0.7c0-0.3-0.1-0.6-0.2-0.9c-0.9-2.9,0.6-6.3,0.9-9.2s-0.4-6.2-2.7-8.2c-0.4,0.1-0.8,0.3-1.1,0.4
				c0-0.1-0.1-0.1-0.1-0.2c-3.4-4.1-8.3-0.6-10.9,2.6c-2.1,2.6-4,5.5-4.8,8.9c-0.8,3.1-1.1,7.6-0.7,10.7c0.2,1.8,0.9,3.6,1.3,5.5
				c0.3,1.1,0.4,2.2,0.1,3.3c-0.5,2.4-2.4,4.1-4.1,5.7c-0.2,0.4-0.4,0.9-0.5,1.3c-0.2,0.4-0.4,0.9-0.5,1.3c-0.1,0.3-0.2,0.6-0.3,0.9
				c0.1-0.3,0.2-0.6,0.3-0.9c0.2-0.4,0.4-0.9,0.5-1.3c0.2-0.4,0.4-0.9,0.5-1.3c-0.3,0.3-0.5,0.4-0.7,0.7
				C490.6,124,488.6,126.5,489.1,129.2z M507.2,88.4c0.3-0.2,0.5-0.4,0.8-0.4C507.7,88.1,507.5,88.2,507.2,88.4z"/>
		</g>
		<g>
			<polygon class="st20" points="480.5,78.6 432.7,84.3 428.8,51.2 451.2,35.2 476.6,45.5 			"/>
			<path class="st31" d="M483.8,46.1c-3.6-1.7-7.2-3.4-10.8-5.1c-5.8-2.7-11.7-5.5-17.5-8.3c-1.4-0.7-2.8-1.4-4.2-2
				c-0.9-0.4-1.8-0.3-2.6,0.4c-0.4,0.4-1,0.8-1.4,1.2c-4.6,3.9-9.2,7.7-13.7,11.5c-3.7,3.1-7.5,6.2-11.2,9.3
				c-0.1,0.1-0.1,0.1-0.2,0.2c-1,0.8-1.1,2.4-0.4,3.4c0.7,1.1,2.1,1.3,3.1,0.5c3-2.6,6.1-5,9.1-7.6c4.8-4.1,9.6-8,14.4-12.1
				c0.8-0.6,1.6-1.3,2.3-1.9c3.3,1.5,6.5,3.1,9.9,4.6c5.9,2.7,11.8,5.5,17.7,8.3c1.3,0.6,2.7,1.2,4.1,1.9c1.1,0.5,2.4,0,2.9-1.2
				C485.4,48.2,484.8,46.7,483.8,46.1z"/>
			
				<rect x="443.8" y="58.9" transform="matrix(0.9932 -0.1168 0.1168 0.9932 -5.105 52.9985)" class="st30" width="11.7" height="22.3"/>
		</g>
		<g>
			<g>
				<path class="st40" d="M608.7,118.3c-4.8-0.4-10.9,2-12.4,6.1c-1.4-4.1-8.7-6.8-13.5-6.4c-12.7,0.8-17.3,14.9-12,24.5
					c2.8,5.2,6.9,9.7,11.4,13.8c3.7,3.4,13.4,10.7,13.5,10.7c0,0,10-7,13.8-10.2c4.6-4,8.8-8.4,11.8-13.4
					C626.7,133.8,621.3,119.5,608.7,118.3z"/>
			</g>
			<polygon class="st20" points="606.5,138.4 598.6,138.4 598.6,130.6 593.2,130.6 593.2,138.4 585.4,138.4 585.4,143.8 
				593.2,143.8 593.2,151.7 598.6,151.7 598.6,143.8 606.5,143.8 			"/>
		</g>
		<g>
			<polygon class="st28" points="620.3,132 618.3,133.8 615.9,133.7 615.6,134.1 616.2,134.5 614.2,134.9 613.2,136.2 613.8,138.4 
				615.6,139.8 617.7,138.9 619.3,136.8 622.1,134.4 			"/>
			<path class="st26" d="M618.3,133.1c3.3-2.6,6.4-5,9.7-7.6c0.9-0.7,1.8-1.2,2.7-1.8c1.2-1,1.6-1.3,1.1-2.7
				c-1.2-4.2-3.9-7.9-5-12.2c1.4-0.8,2.6-1.8,4.1-2.5c2.4-1.1,3,0.7,4,2.5c1.1,2.1,2.3,4.2,3.3,6.4c0.9,1.8,5,9.3,2.6,11.1
				c-1.7,1.3-20.3,11.1-20.2,11.5C620.6,137.7,618.3,133.1,618.3,133.1z"/>
		</g>
		<g>
			<g>
				<path class="st20" d="M598.2,191.3l-4.2-4.1h-0.1c-0.3-0.5-0.4-1-0.7-1.5c-1.3-2.6-2.6-5.3-3.9-7.9c-1.1-2.4-2.1-6.3-5.3-6.3
					l-29.9-0.2c-3.3,0-6.3,1.9-7.8,5.1l-5,11h-0.5l-10,3.1c-3.5,1.7-5.8,5.3-5.8,9.2v5.9l76,0.5l0.1-8.4
					C600.8,195.3,599.9,193,598.2,191.3z"/>
				<path class="st30" d="M569,186.3l20,0.2l-4.5-11.2c-0.3-0.5-0.7-0.9-1.3-1l-14.1-0.1L569,186.3z"/>
				<path class="st30" d="M565.7,174.1l-11.4-0.1c-2.5,0-4.7,1.4-5.7,3.7l-3.8,8.3l20.9,0.2V174.1z"/>
				<g class="st16">
					<path class="st41" d="M585.1,177.9c0.3,0.2,0.5,0.3,0.8,0.4l-1.2-3.1c-0.3-0.5-0.7-0.9-1.3-1h-4.8
						C580.7,175.5,582.9,176.7,585.1,177.9z"/>
					<path class="st42" d="M585.4,180.5c-3.6-2-7.5-4.3-11.1-6.3h-4.6c3.1,2.7,7,5.1,10.6,7.3c2.1,1.3,4.2,2.6,6.4,3.7
						c0.7,0.4,1.5,0.7,2.2,1.1l-1.9-4.8C586.5,181.2,585.9,180.8,585.4,180.5z"/>
					<path class="st42" d="M562.1,181.3c-1.5-1-3.1-1.9-4.8-2.8c-1.6-0.9-3.3-1.8-4.9-2.6c-0.5-0.3-1.1-0.4-1.7-0.7
						c-0.9,0.6-1.6,1.5-2.1,2.6v0.1c1.8,1.2,3.4,2.4,5.1,3.6c2.6,1.8,5.3,3.2,8,4.7h3.9V184C564.4,183.1,563.3,182.1,562.1,181.3z"
						/>
				</g>
				<g>
					<path class="st18" d="M553.6,205.6c0.1-0.4,0.1-0.7,0.1-1.1c0-3.5-3.3-6.4-7.5-6.4c-1.6,0-3.1,0.4-4.3,1.1
						c2.6,0.5,4.8,1.8,6.6,3.5c1,0.9,1.7,1.8,2.2,2.7L553.6,205.6z"/>
				</g>
				<g>
					<path class="st18" d="M592.9,205.9c0.1-0.4,0.1-0.7,0.1-1.1c0-3.5-3.3-6.4-7.3-6.4c-1.6,0-3.1,0.4-4.2,1.1
						c2.5,0.5,4.7,1.8,6.4,3.5c0.9,0.9,1.6,1.8,2.1,2.7L592.9,205.9z"/>
				</g>
				<g>
					<ellipse class="st43" cx="544.6" cy="204.9" rx="6.7" ry="6.7"/>
					<g>
						<g>
							<ellipse class="st20" cx="544.6" cy="204.8" rx="3.8" ry="3.8"/>
						</g>
						<path class="st18" d="M545.2,207.5c0.7-0.1,1.5-0.3,1.9-0.8c-0.3,0.6-0.8,1.2-1.5,1.4c-0.3,0.1-0.4,0.1-0.7,0.1s-0.5,0-0.8,0
							c-0.7-0.1-1.3-0.5-1.6-1.1c0.1,0.2,0.9,0.4,1.1,0.4C544.3,207.5,544.7,207.5,545.2,207.5z"/>
					</g>
				</g>
				<g>
					<ellipse class="st43" cx="584.1" cy="205.1" rx="6.7" ry="6.7"/>
					<g>
						<g>
							<path class="st20" d="M582.7,208.6c-1.9-0.8-2.9-3-2.1-4.9c0.8-1.9,3-2.9,4.9-2.1c1.9,0.8,2.9,3,2.1,4.9
								C586.8,208.5,584.6,209.4,582.7,208.6z"/>
						</g>
						<path class="st18" d="M584.7,207.8c0.7-0.1,1.5-0.3,1.9-0.8c-0.3,0.6-0.8,1.2-1.5,1.4c-0.3,0.1-0.4,0.1-0.7,0.1s-0.5,0-0.8,0
							c-0.7-0.1-1.3-0.5-1.6-1.1c0.1,0.2,0.9,0.4,1.1,0.4C583.7,207.8,584.3,207.8,584.7,207.8z"/>
					</g>
				</g>
			</g>
			<path class="st18" d="M563.1,191.2H561c-0.4,0-0.7-0.4-0.7-0.7v-0.1c0-0.4,0.4-0.7,0.7-0.7h2.1c0.4,0,0.7,0.4,0.7,0.7v0.1
				C563.8,190.9,563.6,191.2,563.1,191.2z"/>
		</g>
		<g>
			<g>
				<polygon class="st25" points="434.6,80.8 434,76.7 435.8,76.4 436.8,79.1 437.6,78.6 437.7,82.2 435.9,82.8 				"/>
			</g>
			<g>
				<polygon class="st26" points="461.5,102.5 445.5,98.4 438.1,80.9 434.6,82.3 438.8,104.9 457.2,114.3 				"/>
			</g>
		</g>
		<g>
			<g>
				<g>
					<polygon class="st29" points="447,206.9 446.9,208.9 450.8,211.5 453.1,209.6 451.3,207.2 447.3,204.8 					"/>
					<polygon class="st7" points="447,143 446.2,149.4 452,177.7 447,206.2 451,207.4 464.1,173.7 464.8,163.3 463.1,142 					"/>
				</g>
				<g>
					<polygon class="st7" points="477.8,145.1 477.9,172 472.6,206.6 468.7,206.6 466.4,174.6 461.3,142.6 					"/>
					<polygon class="st29" points="468.7,208.2 472.9,210.3 475,208.3 472.9,206.2 468.7,206.1 					"/>
				</g>
			</g>
			<g>
				<path class="st26" d="M481,141.2c-2.8-8.7-3.1-17.8-4-26.9c-0.3-2.6-0.5-5.4-1.6-7.8c-1.3-2.8-3.3-4.3-5.8-5.1
					c-3.2-1.1-6.9-1-10.1-1.1c-3.1-0.1-5.8,11.5-9,17.2c-1.9,3.4-4,6.5-5.2,10.3c-1.2,3.6-2.5,7.3-3.2,11c-1.1,5.6-3.9,9.6-1.2,11.5
					c0.3,0.1,0.4,0.2,0.7,0.3c4.4,1.6,9,2.7,13.6,3.3c4.1,0.5,8.3,0.6,12.4,0.3c5.6-0.5,11.1-1.3,16.1-4.3
					C482.9,146.9,481.9,144.1,481,141.2z"/>
			</g>
			<g>
				<path class="st25" d="M458,91.6c1.8-5.3,9.5-7.1,11.4-1c0.5,1.8,0.9,3.8,0.5,5.7s-1.5,3.7-3.3,4.5l0,0c0.1,0.5,0.2,1,0.2,1.5
					c0,0.1,0,0.3,0,0.4c-0.1,0.1-0.2,0.1-0.4,0.2c-0.6,0.1-1.1,0.2-1.8,0.3c-0.3,0-0.6,0.1-0.9,0c-0.6-0.2-0.9-1-0.9-1.6
					c0-0.2,0-0.4,0-0.4C459.4,99.8,456.9,95,458,91.6z"/>
				<g>
					<path class="st7" d="M467.5,82.5c1.4-0.2,2.6,1.1,4,1.8c1.1,0.6,2.3,0.8,3.4,1.2c1.1,0.5,2.2,1.5,2.3,2.8
						c1.1-0.6,2.4-1.2,3.7-1c1.3,0.3,2.5,1.8,1.9,3.1c-0.4,1.1-1.9,1.4-2.5,2.5c-0.8,1.8,1.3,4.5-0.1,5.6c-0.4,0.3-0.8,0.4-1.1,0.6
						c-0.4,0.4-0.5,1-0.7,1.5c-0.9,2.5-3.3,4.1-5.8,3.8c-1.5-0.7-2.7-2.2-3.3-3.9c-0.7-2,0.4-2.7,0.6-4.7c0.2-2.1-0.4-4.3-1.8-6
						c-0.9-1.1-2.1-2-3.4-2.1c-0.5-0.1-0.4,0.4-1,0c-0.3-0.2-0.6-0.9-0.7-1.1C464.4,85.7,465.6,82.8,467.5,82.5z"/>
					<path class="st7" d="M452.1,85.2c-0.7,0.2-1.5,0.2-2.2,0.4c-1.1,0.4-1,1.6-1.3,2.5c-0.4,1.1-0.8,2.5-1.5,3.3
						c-0.5,0.6-1.2,0.9-1.8,1.4c-0.6,0.4-1.1,1.1-1.1,1.9s0.5,1.5,0.6,2.2c0.1,1.1-0.1,1.8,0.3,2.9c0.2,0.6,0.4,1.2,0.9,1.7
						c0.6,0.5,1.5,0.5,2.2,0.4c0.8-0.1,1.5-0.4,2.3-0.1c1.6,0.5,1.3,2.2,1.8,3.5c0.6,2.1,3.1,3.3,4.9,2.6c1.6-0.6,2.5-2.5,2.4-4.2
						c0-0.9-0.4-1.8-0.4-2.6c0-0.9,0.4-2-0.4-2.7c-0.2-0.2-0.4-0.3-0.6-0.4c-0.2-0.2-0.2-0.4-0.3-0.5c-0.2-0.7,0-1.5,0.4-2
						c0.3-0.4,0.7-0.7,0.9-1.1c0.2-0.5,0.1-1.1,0-1.8c-0.1-1.4,0.7-2.9,1.9-3.4c0.8-0.4,1.5-0.6,2.2-1.1c0.1-0.1,1.7-1.5,1.8-1.1
						c-0.1-0.5-0.4-1-0.7-1.4c-0.5-0.7-1.1-1.4-1.8-1.8c-2.3-1.3-2.5,1.8-4.3,1.4c-0.4-0.1-0.8-0.5-1.2-0.8
						c-0.8-0.4-1.7-0.3-2.5,0.1C453.6,84.5,452.9,85,452.1,85.2z"/>
				</g>
			</g>
		</g>
	</g>
</g>
<g>
	<polygon class="st44" points="109.1,85.7 113,86.7 129.5,101.2 127,109 118.9,109 	"/>
	<g>
		<polygon class="st45" points="203.6,91.9 190.2,102 178.8,104.1 178.8,108.2 195.5,106.9 210.9,98.9 208,90.4 		"/>
	</g>
	<g>
		<g>
			<polygon class="st46" points="221.6,203.2 221.8,205.1 218.2,207.6 216.2,205.9 217.9,203.6 221.5,201.2 			"/>
		</g>
		<g>
			<polygon class="st47" points="221.6,142.5 222.2,148.6 216.8,169.3 221.8,202.5 218.1,203.8 208.3,171.3 206.8,161.9 
				206.8,141.9 			"/>
		</g>
	</g>
	<g>
		<g>
			<polygon class="st47" points="193.2,149.3 200.9,204.9 204.5,204.9 205.1,169.3 211.5,144.2 			"/>
		</g>
		<g>
			<polygon class="st46" points="204.5,204.5 204.5,206.5 200.7,208.6 198.7,206.5 200.7,204.5 			"/>
		</g>
	</g>
	<g>
		<g>
			<path class="st44" d="M221.4,135.8c-3-19.8-1.9-34.2-2.1-38.1c-0.2-4-2.9-6-2.9-6c-1.2-0.3-2.3-1.1-3.5-1.4
				c-8.4-2.1-12.9,4.2-15.9,11.1c-3.9,8.5-7,17.2-9.7,26.1c-2.3,7.8-4.6,15.7-5.5,23.8c-0.4,3.3-0.7,6.5,2.9,8
				c5.8,2.4,12.4,2.3,18.6,3.1c7,0.9,14.2,1.5,21.3,1.8C228.2,164.3,224.4,155.6,221.4,135.8z"/>
		</g>
	</g>
	<g>
		<path class="st26" d="M205.7,60.1C180.4,60.7,170.4,47,169.1,45c0,0,0-0.2-0.1-0.1c-0.1-0.1-0.1,0.1-0.1,0.1
			c-2,1.3-16.5,10.2-39.7,0.2c0,0-12.2,42.9-1.6,63.4c11.4,21.9,23,30.2,23.1,30.1c0.1,0.1,14-3.1,32.7-19.2
			C200.8,104.4,205.7,60.1,205.7,60.1z"/>
	</g>
	<g>
		<path class="st48" d="M201.2,63.9c-22.9,0.4-32.1-11.8-33.3-13.7c0,0,0-0.2-0.1-0.1c-0.1-0.1-0.1,0.1-0.1,0.1
			c-1.8,1.1-14.9,9-36,0.1c0,0-11,38.1-1.2,56.5c10.4,19.6,20.7,28,20.8,27.9c0.1,0.1,12.9-3.7,29.9-18.1
			C196.9,103.3,201.2,63.9,201.2,63.9z"/>
	</g>
	<g>
		<g>
			<path class="st49" d="M167,54.2C167,54.2,167.1,54,167,54.2c0.2-0.2,0.2,0,0.2,0c1.2,1.8,10.6,14.2,33.5,14.3c0.7-4,1-6.5,1-6.5
				c-22.9,0.4-32.1-11.8-33.3-13.7c0,0,0-0.2-0.1-0.1c-0.1-0.1-0.1,0.1-0.1,0.1c-1.8,1.1-14.9,9-36,0.1c0,0-0.7,2.5-1.6,6.3
				C151.9,63.2,165.2,55.4,167,54.2z"/>
		</g>
	</g>
	<g class="st50">
		<path class="st20" d="M192.6,73.4c-17.4,0.4-26.2-9.8-27-11.2c0,0,0-0.1-0.1-0.1c0-0.1-0.1,0.1-0.1,0.1c-1.3,0.9-13.2,7-29.2,0.2
			c0,0-6.4,29.3,0.9,43.4c7.8,15.1,15.8,20.7,15.8,20.7s9.6-2.1,22.5-13.2C187.4,103,192.6,73.4,192.6,73.4z"/>
	</g>
	<g>
		<polygon class="st51" points="185.5,147.8 196.4,142.9 203.4,135.5 205.7,137.9 199.9,146.8 191.1,153.7 		"/>
	</g>
	<g>
		<polygon class="st51" points="176.8,153.7 171.1,143.7 170.5,131.8 173.8,131.7 175.8,142.9 181.1,147.4 		"/>
	</g>
	<g>
		<polygon class="st44" points="175.6,182.9 175.6,205.9 179,205.9 181.2,192 183.2,181.3 		"/>
	</g>
	<g>
		<polygon class="st44" points="183.2,180.5 184.5,190.5 186.2,206.5 189.7,206.4 189.7,193.9 191.4,181.3 		"/>
	</g>
	<g>
		<path class="st51" d="M181.6,146.9c0,0-3.7-0.6-5.2,5s-5.6,22.1-5.9,30.8c-0.2,8.7,5.5,3.1,12.2,4.1c6.7,1.1,12.2,1.2,12.2-2.7
			S197.3,147.1,181.6,146.9z"/>
	</g>
	<g>
		<g>
			<g>
				<path class="st52" d="M179.5,135.7c3.1-5.5,10-1.9,10.4,3.4c0.3,3.1-1.8,8.2-5.4,7.9c-0.3,0.5-0.6,1.4-1.1,1.7s-1.8-0.6-2.3-0.9
					c-0.2-0.1-0.3-0.2-0.4-0.4s0-0.5,0.2-1c-0.4-0.2-0.7-0.4-1.1-0.6c-1.5-1.1-2.2-3.1-2.1-4.9C177.8,139.2,178.5,137.4,179.5,135.7
					z"/>
			</g>
		</g>
		<g>
			<path class="st53" d="M183.7,134.3c0,0,4.9,1.2,4.9,3.3c0,3.1,0.2,5.1,0,7l3.5-2l2-5.7c0,0-0.4-4.8-2.9-5.5
				c-2.5-0.8-7.6-1.7-7.6-1.7l-3.9,1.2l-2.9-0.2l1,8.6C178,139.2,179.2,133.1,183.7,134.3z"/>
		</g>
	</g>
	<g>
		<polygon class="st54" points="175.6,205.9 173.6,207.9 174.5,209.2 178.4,207.9 178.4,205.9 		"/>
	</g>
	<g>
		<polygon class="st54" points="186.8,206.5 187.6,209.3 189.9,210.2 191.2,209.6 189.2,206.4 		"/>
	</g>
	<g>
		<polygon class="st52" points="203.4,135.5 203.9,133 204.6,133 206.3,131.3 206.9,132.5 206.5,135.7 205.1,137.1 		"/>
	</g>
	<g>
		<polygon class="st52" points="173.1,131.7 174.9,128.8 174.1,127.8 173,128.8 172.1,125.9 169.8,127 170.9,131.8 		"/>
	</g>
	<g>
		<polygon class="st45" points="219.4,102.4 200.2,116.7 178.5,115.5 178.6,111.1 197.1,109 211.7,96.5 219.5,94.1 		"/>
	</g>
	<g>
		<polygon class="st52" points="178.7,111.2 173.7,111.1 171.4,113.5 172.1,114.8 174.8,115.3 178.5,114.2 		"/>
	</g>
	<g>
		<g>
			<path class="st53" d="M207.9,71.2c0,0-2.6,1.2-3.3,8.2c-0.6,7-2.3,11.2-2.3,11.2s2,1.6,4,1c1.9-0.6,2.6-0.7,2.6-3.5
				c0.1-2.9,2-16.1,2-16.1L207.9,71.2z"/>
		</g>
		<g>
			<path class="st53" d="M212.8,74.9c-2.7,0.1-5.3,1.9-6.3,4.5c-1.1-1.7-1.3-3.8-0.5-5.6c0.8-1.8,2.4-3.3,4.2-3.7
				c1.3,1.2,2.2,3,2.3,4.8H212.8z"/>
		</g>
		<g>
			<path class="st52" d="M206.8,77c3-6.6,11.4-3.3,12.4,3c0.6,3.5-1.2,9.7-5.5,9.8c-0.2,0.6-0.6,1.8-1.1,2c-0.6,0.4-2.1-0.5-2.7-0.8
				c-0.2-0.1-0.4-0.2-0.4-0.4c-0.1-0.2,0-0.6,0.1-1.1c-0.4-0.2-0.9-0.4-1.3-0.6c-1.8-1.1-2.8-3.3-2.9-5.5
				C205.3,81.1,206,79,206.8,77z"/>
		</g>
		<g>
			<path class="st53" d="M210.5,70c0,0-1.8,3.5,2.7,5.8c4.6,2.2,6.7,6.8,4.9,10.6s-6.1,5.8-4.5,7.3s8.8,2.2,8.8,2.2
				s7.7-12.9,3.5-20.4S213.8,65.8,210.5,70z"/>
		</g>
	</g>
	<g>
		<g>
			<path class="st20" d="M137.3,84.9l1.1-6l0.8,0.2l-1.1,6L137.3,84.9z"/>
		</g>
		<g>
			<path class="st20" d="M144.4,80.1l0.8,0.2l-1.1,6l-0.8-0.2l-2.2-5.4l-1,4.8l-0.8-0.2l1.1-6l0.8,0.2l2.2,5.4L144.4,80.1z"/>
		</g>
		<g>
			<path class="st20" d="M146.9,82.3c0,0.2,0,0.4,0.1,0.6s0.3,0.3,0.4,0.4c0.2,0.1,0.4,0.2,0.6,0.3c0.3,0.1,0.4,0.2,0.7,0.4
				c0.2,0.1,0.4,0.3,0.6,0.4c0.2,0.2,0.3,0.4,0.4,0.5c0.1,0.3,0.1,0.5,0,0.8c-0.1,0.4-0.4,0.8-0.8,1.1c-0.4,0.3-1,0.4-1.6,0.3
				s-1.1-0.4-1.4-0.7c-0.4-0.4-0.4-0.8-0.4-1.2l0.8,0.2c0,0.3,0,0.5,0.2,0.7s0.4,0.4,0.8,0.4c0.4,0.1,0.7,0,1-0.1
				c0.3-0.2,0.4-0.4,0.4-0.6c0.1-0.3,0-0.4-0.1-0.6s-0.3-0.3-0.4-0.4c-0.2-0.1-0.4-0.2-0.6-0.3c-0.3-0.1-0.4-0.2-0.7-0.4
				c-0.2-0.1-0.4-0.3-0.6-0.4c-0.2-0.2-0.3-0.4-0.4-0.5c-0.1-0.3-0.1-0.5,0-0.8c0.1-0.5,0.4-0.9,0.8-1.1c0.4-0.3,0.9-0.3,1.5-0.2
				c0.6,0.1,1,0.4,1.3,0.7c0.3,0.4,0.4,0.7,0.4,1.2l-0.9-0.2c0-0.3-0.1-0.4-0.2-0.7c-0.2-0.2-0.4-0.4-0.8-0.4
				c-0.4-0.1-0.6,0-0.9,0.1C147,81.7,146.9,82,146.9,82.3z"/>
		</g>
		<g>
			<path class="st20" d="M150.8,85.4l0.8-3.9l0.8,0.2l-0.8,3.9c-0.1,0.5,0,0.9,0.2,1.1c0.2,0.3,0.5,0.5,1,0.6c0.4,0.1,0.9,0,1.1-0.2
				c0.4-0.2,0.5-0.5,0.6-1.1l0.8-3.9l0.8,0.2l-0.8,3.9c-0.2,0.7-0.4,1.2-1,1.5c-0.5,0.3-1.1,0.4-1.8,0.3c-0.6-0.1-1.1-0.4-1.5-0.9
				C150.7,86.7,150.7,86.1,150.8,85.4z"/>
		</g>
		<g>
			<path class="st20" d="M157.4,86.3l-0.4,2.5l-0.8-0.2l1.1-6l1.9,0.4c0.7,0.1,1.1,0.4,1.4,0.8c0.3,0.4,0.4,0.8,0.3,1.3
				c-0.1,0.4-0.3,0.9-0.6,1.1s-0.7,0.4-1.3,0.4l1.1,2.8l-1-0.2l-1.1-2.7L157.4,86.3z M158.1,83.5l-0.4,2.3l1.1,0.3
				c0.4,0.1,0.8,0.1,1.1-0.1s0.4-0.4,0.4-0.8c0.2-0.8-0.2-1.2-1.1-1.4L158.1,83.5z"/>
		</g>
		<g>
			<path class="st20" d="M165.6,90.4l-0.2-1.4l-2.6-0.5l-0.7,1.2l-0.8-0.2l3.3-5.5l0.9,0.2l1,6.3L165.6,90.4z M163.1,88l2.2,0.4
				l-0.5-3.3L163.1,88z"/>
		</g>
		<g>
			<path class="st20" d="M172.5,85.7l0.8,0.2l-1.1,6l-0.8-0.2l-2.2-5.4l-1,4.8l-0.8-0.2l1.1-6l0.8,0.2l2.2,5.4L172.5,85.7z"/>
		</g>
		<g>
			<path class="st20" d="M174.2,91.3c-0.4-0.7-0.6-1.5-0.4-2.4s0.6-1.6,1.3-2s1.5-0.6,2.3-0.4c0.6,0.1,1.1,0.4,1.6,0.8
				c0.4,0.4,0.7,0.9,0.8,1.5l-1-0.2c-0.3-0.7-0.8-1.2-1.6-1.3c-0.6-0.1-1.2,0-1.8,0.4c-0.5,0.4-0.8,0.9-1,1.6s0,1.3,0.3,1.8
				c0.4,0.5,0.8,0.8,1.5,1c0.4,0.1,0.8,0.1,1.1-0.1c0.4-0.1,0.6-0.4,0.9-0.6l1,0.2c-0.4,0.5-0.8,0.9-1.3,1.1s-1.1,0.3-1.8,0.1
				C175.3,92.5,174.6,92,174.2,91.3z"/>
		</g>
		<g>
			<path class="st20" d="M184.5,88l-0.1,0.6l-2.5-0.4l-0.4,2l2.1,0.4l-0.1,0.6l-2.1-0.4l-0.4,2.1l2.4,0.4l-0.1,0.6l-3.2-0.6l1.1-6
				L184.5,88z"/>
		</g>
	</g>
	<g>
		<path class="st51" d="M93.2,61.7c0,0-1.8,0.2-2.8,1.5c-1.1,1.3-4.4,7.3-4.3,11.9c0,4.7-0.7,10.4,8.5,14.4c4.6,1.5,4.7-2.6,8.3-2.8
			c3.6-0.3,6.8,1.1,6.3-4.7c-0.5-5.6-4.1-7-6.1-13.3C101.1,62.4,97.9,59.9,93.2,61.7z"/>
	</g>
	<g>
		<polygon class="st51" points="91.9,62.1 83.8,64.8 77.6,65.7 77.7,68.3 83.7,69.2 90.1,67.9 		"/>
	</g>
	<g>
		<polygon class="st51" points="99.5,61.4 105.4,63.5 110.3,61.7 111.1,63.4 106.4,66.8 101.8,67.1 		"/>
	</g>
	<g>
		<g>
			<path class="st53" d="M98,49.9c0,0,3.7,2.5,3.3,6.2c0,0,2.5-1.9,1.4-4.7s-1.8-3.8-4.3-3.2C95.9,48.9,98,49.9,98,49.9z"/>
		</g>
		<g>
			<path class="st52" d="M101.3,54c-0.4-5.5-7.3-5.3-9.7-1.1c-1.3,2.4-1.6,7.2,1.4,8.4c0,0.4,0,1.4,0.3,1.8c0.4,0.4,1.7,0.2,2.1,0.1
				c0.2,0,0.3,0,0.4-0.1c0.2-0.1,0.2-0.4,0.3-0.8c0.4,0,0.7,0,1.1-0.1c1.6-0.4,2.9-1.7,3.5-3.2C101.3,57.4,101.4,55.7,101.3,54z"/>
		</g>
		<g>
			<path class="st53" d="M98.9,51.4c-1.9,2-4.9,2.1-6.8,4.1c0,0-1.2,1.2-0.9,4.3c0,0-3.2,0.2-4.6-3s1.8-9.4,1.8-9.4s3.8-2.7,8.7-1.6
				c1.7,0.4,3.2,1.7,2.8,3.5C99.7,50.1,99.4,50.8,98.9,51.4z"/>
		</g>
	</g>
	<g>
		<path class="st51" d="M91.8,62.2c0,0-0.4,2.8,1.1,3.1c1.5,0.4,4.8-0.3,5.5-0.8c0.8-0.7,0-2.7,0-2.7l1.1-0.4c0,0,5,10.3,1,11.9
			c-4.1,1.6-9.2,2-10-1.2c-0.9-3.3,0.4-9.3,0.4-9.3L91.8,62.2z"/>
	</g>
	<g>
		<polygon class="st52" points="77.6,66 74.6,65.3 74.6,66 76.6,67.6 76.1,68 76.4,68.3 77.7,68 		"/>
	</g>
	<g>
		<polygon class="st52" points="110.4,62 111.2,61 112.7,61.1 113.1,62.3 112.4,63.5 111.1,63.3 		"/>
	</g>
	<g>
		<polygon class="st24" points="122.5,130.7 123.2,162.7 117.6,204 113,204 109.7,166 102.8,128.1 		"/>
	</g>
	<g>
		<polygon class="st53" points="113,203.4 113,205.9 118.2,208.4 120.6,205.8 118.1,203.4 		"/>
	</g>
	<g>
		<polygon class="st53" points="97.3,204.7 101.2,208 100.3,210.1 92.9,208.5 92.9,204.7 		"/>
	</g>
	<g>
		<polygon class="st24" points="106.3,143.3 103.1,174.2 98.7,205.1 92.5,204.9 92.7,172.8 89,143.1 97.7,139 		"/>
	</g>
	<g>
		<path class="st44" d="M110,86.3c0,0,7.7,5.1,12.6,21.6c5,16.8,4.2,39,4.2,39S83.1,154.3,84,147c0,0-1.4-58.8,18-60.3
			C102.9,86.7,109.6,86,110,86.3z"/>
	</g>
	<g>
		<path class="st20" d="M108.2,88c3.3,8,5.8,15.7,9.2,23.7c2,4.8,2,9.7,2.3,14.8c0.3,5,0.5,10,0.9,15.1c0.1,2.1,0.3,4.2,0.4,6.3
			l-18.3,1.9c1.1-6.1,2.3-12.2,3.2-18.2c0.9-5.6,2.2-12,1.1-17.6c-0.5-2.7-1.1-5.5-1.6-8.3c-1-5.1-1.4-10.2-2.4-15.3
			c-0.1-0.4,0.7-2.3,0.8-2.6L108.2,88z"/>
	</g>
	<g>
		<g>
			<path class="st52" d="M103.1,87.6v1l-5,11.7l-2.2-0.7l1.3-11.4l3.4-1.9C101.7,85.6,103.1,86.4,103.1,87.6z"/>
		</g>
		<g>
			<polygon class="st53" points="98.4,100.1 99.6,102.3 98.6,102.9 95.7,100.9 96,99.3 			"/>
		</g>
	</g>
	<g>
		<g>
			<path class="st55" d="M112.6,83.9l0.6,0.8l2.9,12.4l-2.2,0.7l-5.7-10l1.6-3.6C110.2,83.1,111.8,83,112.6,83.9z"/>
		</g>
		<g>
			<polygon class="st53" points="116.2,97 118.4,98 118.1,99 114.5,99.2 113.7,97.8 			"/>
		</g>
	</g>
	<g>
		<g>
			<path class="st52" d="M108.1,88.2c-1.4-0.3-2.8-0.4-4.3-0.7c0.1-1.1,0.2-2.3,0.4-3.4c-1.1-0.5-2.6-1.2-2.6-2.5
				c0-0.4,0.1-0.8,0.2-1.1c0.4-1.6,0.8-3.3,1.1-4.8c0.1-0.5,0.3-1.1,0.6-1.6c0.6-0.8,1.7-1.1,2.6-1.2c2.6-0.3,5.3,0.4,7.1,2.2
				c0.5,0.4,1,1.1,1.1,1.7c0.3,1,0,2.1-0.4,3.1c-0.3,0.9-0.6,1.8-0.9,2.7c-0.4,1.1-0.8,2.3-1.8,2.6c-0.5,0.2-1.2,0.1-1.8,0.4
				C108.6,86,108.6,87.4,108.1,88.2z"/>
		</g>
		<g>
			<path class="st53" d="M123.2,72.9c0.1-1.1,0-2.3-0.2-3.3c-0.3-1.8-2.3-2.6-4.1-2.9c-3.9-0.5-7.5-2.5-11.3-1.4
				c-2.2,0.6-5.1,0.6-7.1,1.6c-0.9,0.4-1.5,1.1-2.1,1.8c-1.9,2.6-2.1,6.3-0.6,9.2c0.4,0.6,0.8,1.2,1.2,1.8c1,1.1,2.1,2.6,3.4,3.1
				c0.1-1.2-0.8-5.3,0.3-6.3c1.6-1.5,5-0.8,6.9-0.3c2,0.5,3.8,2.1,5.8,2.6c1.5,0.4,3.3-0.3,4.7-1C122.2,76.8,123,74.9,123.2,72.9z"
				/>
		</g>
	</g>
	<g>
		<polygon class="st44" points="97.3,88.2 74.6,102.2 79.3,109.8 93.3,103.2 		"/>
	</g>
	<g>
		<polygon class="st45" points="90,82.3 74.5,102.2 79.3,109.9 84.7,107.4 93.4,84.8 		"/>
	</g>
	<g>
		<polygon class="st52" points="90.7,82.8 92.7,80.1 97.6,79.3 98.5,81.4 96,83.4 92.9,84.4 		"/>
	</g>
	<g>
		<g>
			<path class="st51" d="M87.8,177.4c0,0,1.5,1.2,2.5-1.1c1.1-2.4,2.1-2,2.6-1.2c0.6,0.9-0.7,0.8-1.3,2.6c-1.1,3-2.6,5.3-3,5.6
				c-0.4,0.4-2.1,1.1-2.1,2.3s-1.5-3.6-1.4-3.8C85.1,181.5,87.8,177.4,87.8,177.4z"/>
		</g>
		<g>
			<path class="st56" d="M88.4,180.9c0,0,1,1.7,2.7-0.3c1.8-1.9,2.6-1.2,2.9-0.3c0.3,1-0.9,0.5-2.1,2.1c-2,2.5-4.1,4.2-4.7,4.3
				s-2.3,0.4-2.7,1.4c-0.4,1.1-0.3-3.9-0.1-4.1C84.6,184,88.4,180.9,88.4,180.9z"/>
		</g>
		<g>
			<path class="st51" d="M76.4,191.6c0,0,1.9,5.5,1,7c-1,1.5-3.6,6.4-3.3,7.3c0.4,0.9,0.2,1.2-0.5,1c-0.7-0.3-1.7-1-1.3-2.8
				c0.4-1.8,1.2-4.1,0.6-5.6c-0.6-1.6,0.8-6.3,0.8-6.3L76.4,191.6z"/>
		</g>
		<g>
			<path class="st56" d="M78.4,172.2c0,0-2-0.4-1.9,2c0.2,2.3-2,6.3-5.7,9.4c-3.5,2.9-6.9,7.5-2.7,12.6c4.1,5.1,11.9-0.2,13.7-3.2
				c1.7-2.9,6.3-4.8,7.3-9.2c1-4.3-1.5-6.3-1.6-7.7C87.3,174.8,78.4,172.2,78.4,172.2z"/>
		</g>
		<g>
			<path class="st56" d="M76.5,195.9c0,0,1.1,2.8-1.1,4.8c-2.1,2-4.1,2.9-4.8,4.3c-0.8,1.4,0.9,1.9-0.4,1.9c-1.2,0-2.1-0.2-2-1.8
				s2.7-2.9,2.4-5.1c-0.4-2.2-2-2.6-2.2-4.3c-0.2-1.6,4.8-4.3,4.8-4.3l3.6,4.6L76.5,195.9z"/>
		</g>
		<g>
			<path class="st51" d="M67,193.7c-0.4,0.2-1.9,1-3.3-0.6c-1.4-1.5-1.5-3.7,0.1-5c1.6-1.3,2.8,0.1,2.6,0.6s-1.8,2.4-0.1,3.9
				C67.2,193.1,67,193.7,67,193.7z"/>
		</g>
		<g>
			<path class="st26" d="M87.9,175.3l-0.5,0.7c0,0-3.2,1.9-8.1-1.5c-2.1-1.9-1.7-2.5-1.7-2.5h0.9C78.4,172.1,81.2,176.8,87.9,175.3z
				"/>
		</g>
		<g>
			<path class="st51" d="M81.7,164.2c0,0,0.2-0.6,1.1-0.9s2.8,1,3.3,1c0.4,0,1.3,0,0.5,0.6C85.8,165.4,82.3,165,81.7,164.2z"/>
		</g>
		<g>
			<path class="st56" d="M78.9,167.1c0,0,1.1-2.5,3.3-3.1c1.3-0.4,2.6-0.1,3.9,0.5c0.6,0.4,1.1,0.7,1.8,1.1c0.4,0.3,0.8,0.3,1.2,0.5
				c1,0.6,1.7,1.9,1.6,3.1c0,1.1,1.9,3.9-1.4,5.5s-8.5,0.6-9.9-1C77.9,172.3,76.6,170.6,78.9,167.1z"/>
		</g>
		<g>
			<path class="st51" d="M79.5,167.2c0,0-1.2-0.4-1.9,0.3c-0.8,0.6-1.5,0.6-1.2,1.6s0.7,3.4,2,3.9c1.3,0.4,0.6-1.5,1-2.3
				S80.2,167.3,79.5,167.2z"/>
		</g>
	</g>
</g>
</svg>
