<svg width="25" height="32" viewBox="0 0 25 32" fill="none" preserveAspectRatio="none"
  xmlns="http://www.w3.org/2000/svg">
  <path d="M19.4422 16.6684V11.1128H15.2756V6.94616H9.72003V11.1128H5.55337V16.6684H9.72003V20.835H15.2756V16.6684H19.4422ZM23.6089 1.39062V15.835C23.6088 18.16 23.0251 20.4477 21.9113 22.4885C20.7975 24.5292 19.1892 26.2578 17.2339 27.5156L12.4978 30.5572L7.7617 27.5156C5.80638 26.2578 4.19808 24.5292 3.08427 22.4885C1.97046 20.4477 1.38677 18.16 1.38672 15.835V1.39062H23.6089Z" fill="white"/>
  <path d="M7.01946 28.6846L11.7486 31.7235C11.9727 31.8677 12.2335 31.9443 12.5 31.9443C12.7665 31.9443 13.0273 31.8677 13.2514 31.7235L17.9805 28.6846C20.1372 27.306 21.9111 25.4054 23.1381 23.159C24.3651 20.9126 25.0055 18.3929 25 15.8333V1.38888C25 1.02053 24.8536 0.66726 24.5932 0.406794C24.3327 0.146327 23.9794 0 23.6111 0H1.38892C1.02057 0 0.667296 0.146327 0.406829 0.406794C0.146363 0.66726 3.55461e-05 1.02053 3.55461e-05 1.38888V15.8333C-0.00549696 18.3929 0.634877 20.9126 1.86187 23.159C3.08886 25.4054 4.86281 27.306 7.01946 28.6846ZM2.77781 2.77777H22.2222V15.8333C22.2271 17.9279 21.7033 19.9898 20.6994 21.8282C19.6955 23.6665 18.244 25.2218 16.4792 26.3499L12.5 28.9055L8.52084 26.3471C6.75643 25.2192 5.3051 23.6644 4.30122 21.8266C3.29734 19.9888 2.77337 17.9274 2.77781 15.8333V2.77777Z" fill="#3D9AE2"/>
</svg>
