<svg width="29" height="42" viewBox="0 0 29 42" fill="none" xmlns="http://www.w3.org/2000/svg">
<path opacity="0.23" d="M8 29.5523L10.359 1L29 5.44777L26.641 34L8 29.5523Z" fill="#D0021B"/>
<path d="M24.8889 0H3.11111C2.28599 0 1.49467 0.31607 0.911224 0.87868C0.327777 1.44129 0 2.20435 0 3V39C0 39.7956 0.327777 40.5587 0.911224 41.1213C1.49467 41.6839 2.28599 42 3.11111 42H24.8889C25.714 42 26.5053 41.6839 27.0888 41.1213C27.6722 40.5587 28 39.7956 28 39V3C28 2.20435 27.6722 1.44129 27.0888 0.87868C26.5053 0.31607 25.714 0 24.8889 0V0ZM15.5556 39H12.4444V36H15.5556V39ZM3.11111 33V3H24.8889V33H3.11111Z" fill="#D0021B"/>
</svg>
