<svg width="64" height="61" viewBox="0 0 64 61" fill="none" xmlns="http://www.w3.org/2000/svg">
<path d="M45.7137 43.7174V46.4116C45.7106 47.0217 45.6494 47.6305 45.5309 48.2314C45.2564 49.5741 44.6808 50.8538 43.8385 51.9944C42.9961 53.135 41.9043 54.113 40.628 54.8702L31.9994 59.984L23.3709 54.8702C22.1056 54.1175 21.0214 53.1482 20.1816 52.0189C19.3418 50.8895 18.7632 49.6228 18.4794 48.2924C18.3509 47.672 18.2859 47.0425 18.2852 46.4116V33.5508H45.7137V43.7174ZM41.1423 46.4116V37.6174H22.8566V46.4116C22.8568 47.4152 23.1354 48.4034 23.6677 49.2883C24.2 50.1733 24.9695 50.9277 25.908 51.4847L31.9994 55.0939L38.0909 51.4847C39.0294 50.9277 39.7989 50.1733 40.3312 49.2883C40.8635 48.4034 41.1421 47.4152 41.1423 46.4116Z" fill="#FFC5BD"/>
<path d="M40.0056 16.2695H26.2913V21.3528H5.71987C4.50745 21.3528 3.34469 20.9244 2.48738 20.1617C1.63007 19.3991 1.14844 18.3647 1.14844 17.2862V1.01953H9.14844L12.577 9.15284H53.7199C56.1447 9.15284 58.4702 10.0097 60.1848 11.535C61.8995 13.0603 62.8627 15.1291 62.8627 17.2862V19.3195C62.8609 19.8583 62.6195 20.3745 62.1912 20.7555C61.763 21.1365 61.1827 21.3512 60.577 21.3528H38.3713L40.0056 16.2695Z" fill="#FFC5BD"/>
<path d="M38.3691 21.3529L35.4319 30.5028H26.2891V21.3529V16.2695H40.0033L38.3691 21.3529Z" fill="#FFC5BD"/>
<path d="M35.4319 1.01953L37.5462 9.15284H26.2891V1.01953H35.4319Z" fill="#FFC5BD"/>
<path d="M53.7143 8.13331H38.4514L36.5417 0.787915C36.4836 0.563996 36.3419 0.364201 36.1397 0.221112C35.9376 0.0780234 35.6869 8.26498e-05 35.4286 1.98332e-07H26.2857C25.9826 1.98332e-07 25.6919 0.107113 25.4776 0.297774C25.2633 0.488436 25.1429 0.747028 25.1429 1.01666V8.13331H13.3634L10.2137 0.659815C10.132 0.465903 9.98568 0.298813 9.79431 0.180899C9.60293 0.0629852 9.37565 -0.000129121 9.14286 1.98332e-07H1.14286C0.839753 1.98332e-07 0.549063 0.107113 0.334735 0.297774C0.120408 0.488436 0 0.747028 0 1.01666V17.2833C0.00355572 18.4793 0.48107 19.6359 1.34856 20.5497C2.21604 21.4635 3.41794 22.0759 4.74286 22.2792L6.85714 42.7924C6.87366 42.9516 6.93216 43.1051 7.02787 43.2404C7.12358 43.3757 7.25382 43.489 7.408 43.5712L17.4766 48.9432C18.1947 51.7138 20.0752 54.1359 22.7337 55.7142L31.3589 60.829C31.5467 60.9405 31.7674 61 31.9931 61C32.2189 61 32.4396 60.9405 32.6274 60.829L41.2571 55.7132C43.9447 54.1178 45.8359 51.6607 46.536 48.8548L55.4891 43.5447C55.6309 43.4623 55.7502 43.3528 55.8386 43.2243C55.9269 43.0958 55.9821 42.9514 56 42.8016L58.1817 22.3666H60.5714C61.4807 22.3666 62.3528 22.0453 62.9958 21.4733C63.6388 20.9013 64 20.1255 64 19.3166V17.2833C63.9967 14.8575 62.9119 12.5319 60.9837 10.8165C59.0555 9.10124 56.4412 8.13627 53.7143 8.13331ZM27.4286 2.03333H34.5143L36.1006 8.13331H27.4286V2.03333ZM7.04686 22.3666H11.4286V39.6499C11.4285 39.7988 11.4652 39.946 11.5361 40.0809C11.607 40.2158 11.7104 40.3352 11.8389 40.4307L17.1429 44.3652V46.3924L9.08457 42.0899L7.04686 22.3666ZM26.2857 31.5166H35.4286C35.6768 31.5165 35.9182 31.4445 36.1164 31.3115C36.3145 31.1785 36.4586 30.9918 36.5269 30.7795L39.2297 22.3666H49.1429V39.229L46.8571 41.2623V33.5499C46.8571 33.2803 46.7367 33.0217 46.5224 32.831C46.3081 32.6404 46.0174 32.5333 45.7143 32.5333H18.2857C17.9826 32.5333 17.6919 32.6404 17.4776 32.831C17.2633 33.0217 17.1429 33.2803 17.1429 33.5499V41.7178L13.7143 39.1761V22.3666H25.1429V30.4999C25.1429 30.7696 25.2633 31.0282 25.4776 31.2188C25.6919 31.4095 25.9826 31.5166 26.2857 31.5166ZM44.5714 46.4087C44.5732 47.9154 44.1559 49.3992 43.3567 50.7276C42.5574 52.0561 41.4012 53.188 39.9909 54.0225L32 58.7632L24.0091 54.0245C22.5985 53.1899 21.442 52.0576 20.6428 50.7288C19.8436 49.3999 19.4264 47.9158 19.4286 46.4087V34.5666H44.5714V46.4087ZM53.7714 42.1224L46.8571 46.2226V44.1375L51.0937 40.3687C51.3081 40.1781 51.4285 39.9195 51.4286 39.6499V22.3666H55.8857L53.7714 42.1224ZM61.7143 19.3166C61.7143 19.5863 61.5939 19.8448 61.3796 20.0355C61.1652 20.2262 60.8745 20.3333 60.5714 20.3333H39.8857L41.1017 16.5462L38.9051 15.987L34.5669 29.4833H27.4286V16.2666H25.1429V20.3333H5.71429C4.80497 20.3333 3.9329 20.0119 3.28992 19.44C2.64694 18.868 2.28571 18.0922 2.28571 17.2833V2.03333H8.35086L11.5006 9.50683C11.5823 9.70074 11.7286 9.86783 11.92 9.98574C12.1114 10.1037 12.3386 10.1668 12.5714 10.1666H53.7143C55.8353 10.1688 57.8687 10.9193 59.3685 12.2534C60.8682 13.5876 61.7119 15.3965 61.7143 17.2833V19.3166Z" fill="#D0021B"/>
<path d="M52.5742 12.1992H57.1456V14.2325H52.5742V12.1992Z" fill="#D0021B"/>
<path d="M42.2891 12.1992H44.5748V14.2325H42.2891V12.1992Z" fill="#D0021B"/>
<path d="M46.8633 12.1992H49.149V14.2325H46.8633V12.1992Z" fill="#D0021B"/>
<path d="M37.7109 12.1992H39.9967V14.2325H37.7109V12.1992Z" fill="#D0021B"/>
<path d="M33.1445 12.1992H35.4302V14.2325H33.1445V12.1992Z" fill="#D0021B"/>
<path d="M28.5703 12.1992H30.856V14.2325H28.5703V12.1992Z" fill="#D0021B"/>
<path d="M24 12.1992H26.2857V14.2325H24V12.1992Z" fill="#D0021B"/>
<path d="M19.4297 12.1992H21.7154V14.2325H19.4297V12.1992Z" fill="#D0021B"/>
<path d="M14.8594 12.1992H17.1451V14.2325H14.8594V12.1992Z" fill="#D0021B"/>
<path d="M25.2771 52.3324L31.3663 55.9426C31.5541 56.054 31.7748 56.1135 32.0006 56.1135C32.2263 56.1135 32.447 56.054 32.6348 55.9426L38.724 52.3324C39.8207 51.6832 40.7199 50.8027 41.3414 49.7694C41.9629 48.7362 42.2875 47.5822 42.2863 46.4103V37.6182C42.2863 37.3486 42.1659 37.09 41.9515 36.8993C41.7372 36.7087 41.4465 36.6016 41.1434 36.6016H22.8577C22.5546 36.6016 22.2639 36.7087 22.0496 36.8993C21.8353 37.09 21.7148 37.3486 21.7148 37.6182V46.4103C21.7136 47.5822 22.0382 48.7362 22.6597 49.7694C23.2813 50.8027 24.1804 51.6832 25.2771 52.3324ZM24.0006 38.6349H40.0006V46.4103C40.0012 47.2475 39.7692 48.0718 39.3252 48.8098C38.8811 49.5479 38.2388 50.1769 37.4554 50.6407L32.0006 53.8757L26.5457 50.6407C25.7627 50.1765 25.1208 49.5474 24.6768 48.8094C24.2328 48.0715 24.0005 47.2474 24.0006 46.4103V38.6349Z" fill="#D0021B"/>
<path d="M30.8577 48.8012C31.1607 48.8011 31.4514 48.694 31.6657 48.5033L37.38 43.42L35.764 41.9824L30.8577 46.347L28.2371 44.0157L26.6211 45.4533L30.0497 48.5033C30.2639 48.694 30.5546 48.8011 30.8577 48.8012Z" fill="#D0021B"/>
</svg>
